,external_urls,followers,genres,href,id,images,name,popularity,type,uri,bio
0,{'spotify': 'https://open.spotify.com/artist/246dkjvS1zLTtiykXe5h60'},"{'href': None, 'total': 44413005}","['dfw rap', 'melodic rap', 'pop', 'rap']",https://api.spotify.com/v1/artists/246dkjvS1zLTtiykXe5h60,246dkjvS1zLTtiykXe5h60,"[{'height': 640, 'url': 'https://i.scdn.co/image/ab6761610000e5ebe17c0aa1714a03d62b5ce4e0', 'width': 640}, {'height': 320, 'url': 'https://i.scdn.co/image/ab67616100005174e17c0aa1714a03d62b5ce4e0', 'width': 320}, {'height': 160, 'url': 'https://i.scdn.co/image/ab6761610000f178e17c0aa1714a03d62b5ce4e0', 'width': 160}]",Post Malone,90,artist,spotify:artist:246dkjvS1zLTtiykXe5h60,"Post Malone is a versatile singer and artist known for his unique blend of hip-hop, pop, and rock, captivating listeners with his melodic hooks and introspective lyrics. With his signature face tattoos and laid-back persona, he has become a cultural icon, effortlessly pushing boundaries and redefining the modern music landscape."
1,{'spotify': 'https://open.spotify.com/artist/7dGJo4pcD2V6oG8kP0tJRR'},"{'href': None, 'total': 86362493}","['detroit hip hop', 'hip hop', 'rap']",https://api.spotify.com/v1/artists/7dGJo4pcD2V6oG8kP0tJRR,7dGJo4pcD2V6oG8kP0tJRR,"[{'height': 640, 'url': 'https://i.scdn.co/image/ab6761610000e5eba00b11c129b27a88fc72f36b', 'width': 640}, {'height': 320, 'url': 'https://i.scdn.co/image/ab67616100005174a00b11c129b27a88fc72f36b', 'width': 320}, {'height': 160, 'url': 'https://i.scdn.co/image/ab6761610000f178a00b11c129b27a88fc72f36b', 'width': 160}]",Eminem,91,artist,spotify:artist:7dGJo4pcD2V6oG8kP0tJRR,"Eminem, known as Marshall Mathers, is a highly influential rapper and lyricist, renowned for his quick-witted wordplay and introspective storytelling. With his raw and provocative style, he has become one of the best-selling artists of all time, addressing personal struggles, societal issues, and his own demons through his music."
2,{'spotify': 'https://open.spotify.com/artist/74KM79TiuVKeVCqs8QtB0B'},"{'href': None, 'total': 10023551}",['pop'],https://api.spotify.com/v1/artists/74KM79TiuVKeVCqs8QtB0B,74KM79TiuVKeVCqs8QtB0B,"[{'height': 640, 'url': 'https://i.scdn.co/image/ab6761610000e5ebe053b8338322b9c8609ee7ae', 'width': 640}, {'height': 320, 'url': 'https://i.scdn.co/image/ab67616100005174e053b8338322b9c8609ee7ae', 'width': 320}, {'height': 160, 'url': 'https://i.scdn.co/image/ab6761610000f178e053b8338322b9c8609ee7ae', 'width': 160}]",Sabrina Carpenter,90,artist,spotify:artist:74KM79TiuVKeVCqs8QtB0B,"Sabrina Carpenter is a versatile singer and actress known for her captivating vocals and charismatic stage presence. With a unique blend of pop and R&B influences, she effortlessly delivers catchy melodies and heartfelt lyrics that resonate with audiences worldwide."
3,{'spotify': 'https://open.spotify.com/artist/6qqNVTkY8uBg9cP3Jd7DAH'},"{'href': None, 'total': 95925697}","['art pop', 'pop']",https://api.spotify.com/v1/artists/6qqNVTkY8uBg9cP3Jd7DAH,6qqNVTkY8uBg9cP3Jd7DAH,"[{'height': 640, 'url': 'https://i.scdn.co/image/ab6761610000e5eb4a21b4760d2ecb7b0dcdc8da', 'width': 640}, {'height': 320, 'url': 'https://i.scdn.co/image/ab676161000051744a21b4760d2ecb7b0dcdc8da', 'width': 320}, {'height': 160, 'url': 'https://i.scdn.co/image/ab6761610000f1784a21b4760d2ecb7b0dcdc8da', 'width': 160}]",Billie Eilish,94,artist,spotify:artist:6qqNVTkY8uBg9cP3Jd7DAH,"Billie Eilish is an American singer-songwriter known for her haunting and introspective music, as well as her unique fashion sense. With her whisper-like vocals and dark, brooding lyrics, she has captivated the world with her raw and authentic talent."
4,{'spotify': 'https://open.spotify.com/artist/1RyvyyTE3xzB2ZywiAwp0i'},"{'href': None, 'total': 17542123}","['atl hip hop', 'hip hop', 'rap', 'southern hip hop', 'trap']",https://api.spotify.com/v1/artists/1RyvyyTE3xzB2ZywiAwp0i,1RyvyyTE3xzB2ZywiAwp0i,"[{'height': 640, 'url': 'https://i.scdn.co/image/ab6761610000e5eb6ef89e23678018c6d8630825', 'width': 640}, {'height': 320, 'url': 'https://i.scdn.co/image/ab676161000051746ef89e23678018c6d8630825', 'width': 320}, {'height': 160, 'url': 'https://i.scdn.co/image/ab6761610000f1786ef89e23678018c6d8630825', 'width': 160}]",Future,91,artist,spotify:artist:1RyvyyTE3xzB2ZywiAwp0i,"Future is a renowned American rapper and singer known for his distinct melodic trap sound, captivating listeners with his emotionally charged lyrics and hypnotic beats. With his unique blend of autotune and raw vulnerability, he has solidified his place as one of the influential figures in the hip-hop industry."
5,{'spotify': 'https://open.spotify.com/artist/70kkdajctXSbqSMJbQO424'},"{'href': None, 'total': 1434454}","['classic texas country', 'contemporary country', 'country dawn']",https://api.spotify.com/v1/artists/70kkdajctXSbqSMJbQO424,70kkdajctXSbqSMJbQO424,"[{'height': 640, 'url': 'https://i.scdn.co/image/ab6761610000e5ebc548c7ff983f25641dc71ffe', 'width': 640}, {'height': 320, 'url': 'https://i.scdn.co/image/ab67616100005174c548c7ff983f25641dc71ffe', 'width': 320}, {'height': 160, 'url': 'https://i.scdn.co/image/ab6761610000f178c548c7ff983f25641dc71ffe', 'width': 160}]",Kacey Musgraves,76,artist,spotify:artist:70kkdajctXSbqSMJbQO424,"Kacey Musgraves is a Grammy-winning country singer known for her introspective and witty songwriting, delivering refreshing and progressive perspectives within the genre. With her angelic voice and authentic storytelling, Musgraves consistently captivates audiences with her heartfelt and relatable lyrics about love, life, and the modern human experience."
6,{'spotify': 'https://open.spotify.com/artist/2yLzlEFtIS0Q9UkyBZdQA7'},"{'href': None, 'total': 1004517}","['modern country pop', 'singer-songwriter pop']",https://api.spotify.com/v1/artists/2yLzlEFtIS0Q9UkyBZdQA7,2yLzlEFtIS0Q9UkyBZdQA7,"[{'height': 640, 'url': 'https://i.scdn.co/image/ab6761610000e5eb7700f9e2fad4e7b78f762a64', 'width': 640}, {'height': 320, 'url': 'https://i.scdn.co/image/ab676161000051747700f9e2fad4e7b78f762a64', 'width': 320}, {'height': 160, 'url': 'https://i.scdn.co/image/ab6761610000f1787700f9e2fad4e7b78f762a64', 'width': 160}]",Jessie Murph,74,artist,spotify:artist:2yLzlEFtIS0Q9UkyBZdQA7,"Jessie Murph is a captivating singer and artist known for her powerful vocals and soulful performances. With her unique blend of R&B and pop influences, she effortlessly captivates audiences with her emotive storytelling and infectious energy on stage."
7,{'spotify': 'https://open.spotify.com/artist/2FXC3k01G6Gw61bmprjgqS'},"{'href': None, 'total': 7379054}","['irish singer-songwriter', 'modern rock', 'pop', 'pov: indie']",https://api.spotify.com/v1/artists/2FXC3k01G6Gw61bmprjgqS,2FXC3k01G6Gw61bmprjgqS,"[{'height': 640, 'url': 'https://i.scdn.co/image/ab6761610000e5ebad85a585103dfc2f3439119a', 'width': 640}, {'height': 320, 'url': 'https://i.scdn.co/image/ab67616100005174ad85a585103dfc2f3439119a', 'width': 320}, {'height': 160, 'url': 'https://i.scdn.co/image/ab6761610000f178ad85a585103dfc2f3439119a', 'width': 160}]",Hozier,85,artist,spotify:artist:2FXC3k01G6Gw61bmprjgqS,"Hozier is an Irish singer-songwriter known for his soulful and haunting voice, delivering emotionally charged lyrics that explore themes of love, religion, and social issues. His music effortlessly blends elements of blues, gospel, and folk, creating a captivating and unique sound that resonates with listeners around the world."
8,{'spotify': 'https://open.spotify.com/artist/4j96cMcT8GRi11qbvo1cLQ'},"{'href': None, 'total': 165250}",['indie pop'],https://api.spotify.com/v1/artists/4j96cMcT8GRi11qbvo1cLQ,4j96cMcT8GRi11qbvo1cLQ,"[{'height': 640, 'url': 'https://i.scdn.co/image/ab6761610000e5ebd0cbbfdf3ecde93424ef77d9', 'width': 640}, {'height': 320, 'url': 'https://i.scdn.co/image/ab67616100005174d0cbbfdf3ecde93424ef77d9', 'width': 320}, {'height': 160, 'url': 'https://i.scdn.co/image/ab6761610000f178d0cbbfdf3ecde93424ef77d9', 'width': 160}]",Michael Marcagi,73,artist,spotify:artist:4j96cMcT8GRi11qbvo1cLQ,"Michael Marcagi is a talented singer and artist known for his soulful vocals and captivating stage presence. His music combines elements of pop, R&B, and rock, creating a unique and dynamic sound that resonates with listeners."
9,{'spotify': 'https://open.spotify.com/artist/4oUHIQIBe0LHzYfvXNW4QM'},"{'href': None, 'total': 9885848}",['contemporary country'],https://api.spotify.com/v1/artists/4oUHIQIBe0LHzYfvXNW4QM,4oUHIQIBe0LHzYfvXNW4QM,"[{'height': 640, 'url': 'https://i.scdn.co/image/ab6761610000e5ebcdb9694bfa4a026ee19426ae', 'width': 640}, {'height': 320, 'url': 'https://i.scdn.co/image/ab67616100005174cdb9694bfa4a026ee19426ae', 'width': 320}, {'height': 160, 'url': 'https://i.scdn.co/image/ab6761610000f178cdb9694bfa4a026ee19426ae', 'width': 160}]",Morgan Wallen,90,artist,spotify:artist:4oUHIQIBe0LHzYfvXNW4QM,"Morgan Wallen is a rising country music star with a distinctive voice that blends traditional and contemporary sounds, captivating audiences with his heartfelt, honest lyrics. Known for his energetic performances and signature mullet hairstyle, he brings a refreshing authenticity to the country music scene, quickly becoming a fan favorite."
10,{'spotify': 'https://open.spotify.com/artist/1U1el3k54VvEUzo3ybLPlM'},"{'href': None, 'total': 7421548}",['colombian pop'],https://api.spotify.com/v1/artists/1U1el3k54VvEUzo3ybLPlM,1U1el3k54VvEUzo3ybLPlM,"[{'height': 640, 'url': 'https://i.scdn.co/image/ab6761610000e5eb51dfdac248da65a860963b68', 'width': 640}, {'height': 320, 'url': 'https://i.scdn.co/image/ab6761610000517451dfdac248da65a860963b68', 'width': 320}, {'height': 160, 'url': 'https://i.scdn.co/image/ab6761610000f17851dfdac248da65a860963b68', 'width': 160}]",Kali Uchis,83,artist,spotify:artist:1U1el3k54VvEUzo3ybLPlM,"Kali Uchis is a Colombian-American singer and songwriter known for her unique blend of R&B, soul, and reggae. With her sultry vocals and retro-inspired sound, she effortlessly captivates listeners, offering a refreshing and modern take on classic genres."
11,{'spotify': 'https://open.spotify.com/artist/2e4G04F77jxVuDYo44TCSm'},"{'href': None, 'total': 456162}","['k-pop', 'korean r&b']",https://api.spotify.com/v1/artists/2e4G04F77jxVuDYo44TCSm,2e4G04F77jxVuDYo44TCSm,"[{'height': 640, 'url': 'https://i.scdn.co/image/ab6761610000e5eb29971b8d9d19fef176338e4a', 'width': 640}, {'height': 320, 'url': 'https://i.scdn.co/image/ab6761610000517429971b8d9d19fef176338e4a', 'width': 320}, {'height': 160, 'url': 'https://i.scdn.co/image/ab6761610000f17829971b8d9d19fef176338e4a', 'width': 160}]",Loco,75,artist,spotify:artist:2e4G04F77jxVuDYo44TCSm,"Loco is a South Korean rapper known for his smooth flow and introspective lyrics. With his unique blend of charm and vulnerability, he captivates listeners and effortlessly brings emotions to life through his music."
12,{'spotify': 'https://open.spotify.com/artist/06HL4z0CvFAxyc27GXpf02'},"{'href': None, 'total': 114917099}",['pop'],https://api.spotify.com/v1/artists/06HL4z0CvFAxyc27GXpf02,06HL4z0CvFAxyc27GXpf02,"[{'height': 640, 'url': 'https://i.scdn.co/image/ab6761610000e5ebe672b5f553298dcdccb0e676', 'width': 640}, {'height': 320, 'url': 'https://i.scdn.co/image/ab67616100005174e672b5f553298dcdccb0e676', 'width': 320}, {'height': 160, 'url': 'https://i.scdn.co/image/ab6761610000f178e672b5f553298dcdccb0e676', 'width': 160}]",Taylor Swift,100,artist,spotify:artist:06HL4z0CvFAxyc27GXpf02,"Taylor Swift is a multi-talented singer-songwriter known for her heartfelt lyrics and relatable storytelling, captivating audiences with her unique blend of country and pop music. With her signature red lipstick and infectious melodies, she has become a global icon, dominating the charts and winning numerous awards for her catchy and emotionally charged songs."
13,{'spotify': 'https://open.spotify.com/artist/7CvTknweLr9feJtRGrpDBy'},"{'href': None, 'total': 477646}",['reggaeton chileno'],https://api.spotify.com/v1/artists/7CvTknweLr9feJtRGrpDBy,7CvTknweLr9feJtRGrpDBy,"[{'height': 640, 'url': 'https://i.scdn.co/image/ab6761610000e5ebe1353fbd075d9aa1303886d3', 'width': 640}, {'height': 320, 'url': 'https://i.scdn.co/image/ab67616100005174e1353fbd075d9aa1303886d3', 'width': 320}, {'height': 160, 'url': 'https://i.scdn.co/image/ab6761610000f178e1353fbd075d9aa1303886d3', 'width': 160}]",FloyyMenor,82,artist,spotify:artist:7CvTknweLr9feJtRGrpDBy,"FloyyMenor is a rising singer and artist known for his captivating vocals and unique blend of R&B and alternative sounds. With his soulful melodies and introspective lyrics, he effortlessly creates a mesmerizing musical experience that leaves listeners craving for more."
14,{'spotify': 'https://open.spotify.com/artist/40ZNYROS4zLfyyBSs2PGe2'},"{'href': None, 'total': 4369682}",['classic oklahoma country'],https://api.spotify.com/v1/artists/40ZNYROS4zLfyyBSs2PGe2,40ZNYROS4zLfyyBSs2PGe2,"[{'height': 640, 'url': 'https://i.scdn.co/image/ab6761610000e5eb4fd54df35bfcfa0fc9fc2da7', 'width': 640}, {'height': 320, 'url': 'https://i.scdn.co/image/ab676161000051744fd54df35bfcfa0fc9fc2da7', 'width': 320}, {'height': 160, 'url': 'https://i.scdn.co/image/ab6761610000f1784fd54df35bfcfa0fc9fc2da7', 'width': 160}]",Zach Bryan,90,artist,spotify:artist:40ZNYROS4zLfyyBSs2PGe2,"Zach Bryan is a rising singer-songwriter known for his raw and emotive storytelling, capturing the essence of heartbreak and introspection in his haunting folk ballads. With his soulful vocals and masterful guitar skills, he effortlessly transports listeners into a world of vulnerability and introspection."
15,{'spotify': 'https://open.spotify.com/artist/7Ez6lTtSMjMf2YSYpukP1I'},"{'href': None, 'total': 166394}",['indie pop'],https://api.spotify.com/v1/artists/7Ez6lTtSMjMf2YSYpukP1I,7Ez6lTtSMjMf2YSYpukP1I,"[{'height': 640, 'url': 'https://i.scdn.co/image/ab6761610000e5eb028d65354505e72e2cf86077', 'width': 640}, {'height': 320, 'url': 'https://i.scdn.co/image/ab67616100005174028d65354505e72e2cf86077', 'width': 320}, {'height': 160, 'url': 'https://i.scdn.co/image/ab6761610000f178028d65354505e72e2cf86077', 'width': 160}]",Dasha,75,artist,spotify:artist:7Ez6lTtSMjMf2YSYpukP1I,Dasha is an up-and-coming singer with a soulful voice that captivates audiences. Her unique blend of R&B and pop creates a mesmerizing sound that leaves listeners craving for more.
16,{'spotify': 'https://open.spotify.com/artist/3bO19AOone0ubCsfDXDtYt'},"{'href': None, 'total': 600590}",['singer-songwriter pop'],https://api.spotify.com/v1/artists/3bO19AOone0ubCsfDXDtYt,3bO19AOone0ubCsfDXDtYt,"[{'height': 640, 'url': 'https://i.scdn.co/image/ab6761610000e5eb4ba4b52faef3fc16db9ecb14', 'width': 640}, {'height': 320, 'url': 'https://i.scdn.co/image/ab676161000051744ba4b52faef3fc16db9ecb14', 'width': 320}, {'height': 160, 'url': 'https://i.scdn.co/image/ab6761610000f1784ba4b52faef3fc16db9ecb14', 'width': 160}]",Myles Smith,78,artist,spotify:artist:3bO19AOone0ubCsfDXDtYt,"Myles Smith is a soulful singer with a captivating voice that effortlessly blends R&B, pop, and gospel influences. His emotive performances and heartfelt lyrics resonate deeply, leaving audiences spellbound and yearning for more."
17,{'spotify': 'https://open.spotify.com/artist/3y2cIKLjiOlp1Np37WiUdH'},"{'href': None, 'total': 481154}",['pop rap'],https://api.spotify.com/v1/artists/3y2cIKLjiOlp1Np37WiUdH,3y2cIKLjiOlp1Np37WiUdH,"[{'height': 640, 'url': 'https://i.scdn.co/image/ab6761610000e5eb89447fe120bae042c52fad07', 'width': 640}, {'height': 320, 'url': 'https://i.scdn.co/image/ab6761610000517489447fe120bae042c52fad07', 'width': 320}, {'height': 160, 'url': 'https://i.scdn.co/image/ab6761610000f17889447fe120bae042c52fad07', 'width': 160}]",Shaboozey,81,artist,spotify:artist:3y2cIKLjiOlp1Np37WiUdH,"Shaboozey is a versatile singer and artist known for his unique blend of soulful vocals and infectious melodies, captivating listeners with his emotive and introspective lyrics. His music seamlessly combines elements of R&B, pop, and alternative, creating a distinct sound that is both contemporary and timeless."
18,{'spotify': 'https://open.spotify.com/artist/7GlBOeep6PqTfFi59PTUUN'},"{'href': None, 'total': 1660416}","['indie pop', 'pov: indie']",https://api.spotify.com/v1/artists/7GlBOeep6PqTfFi59PTUUN,7GlBOeep6PqTfFi59PTUUN,"[{'height': 640, 'url': 'https://i.scdn.co/image/ab6761610000e5ebcde5a0d57c1b79de5fce6bee', 'width': 640}, {'height': 320, 'url': 'https://i.scdn.co/image/ab67616100005174cde5a0d57c1b79de5fce6bee', 'width': 320}, {'height': 160, 'url': 'https://i.scdn.co/image/ab6761610000f178cde5a0d57c1b79de5fce6bee', 'width': 160}]",Chappell Roan,86,artist,spotify:artist:7GlBOeep6PqTfFi59PTUUN,"Chappell Roan is a mesmerizing singer and artist with a hauntingly beautiful voice, captivating listeners with her introspective and emotive songwriting. Her music combines elements of indie-pop and alternative, creating a unique and spellbinding sound that lingers long after the last note fades."
19,{'spotify': 'https://open.spotify.com/artist/22wbnEMDvgVIAGdFeek6ET'},"{'href': None, 'total': 2958758}",['singer-songwriter pop'],https://api.spotify.com/v1/artists/22wbnEMDvgVIAGdFeek6ET,22wbnEMDvgVIAGdFeek6ET,"[{'height': 640, 'url': 'https://i.scdn.co/image/ab6761610000e5ebb2ce21a89c09c00d80d8ca25', 'width': 640}, {'height': 320, 'url': 'https://i.scdn.co/image/ab67616100005174b2ce21a89c09c00d80d8ca25', 'width': 320}, {'height': 160, 'url': 'https://i.scdn.co/image/ab6761610000f178b2ce21a89c09c00d80d8ca25', 'width': 160}]",Benson Boone,85,artist,spotify:artist:22wbnEMDvgVIAGdFeek6ET,"Benson Boone is a rising singer known for his soulful vocals and heartfelt lyrics that captivate listeners. With his charming stage presence and raw talent, he effortlessly delivers emotional performances that leave a lasting impact."
20,{'spotify': 'https://open.spotify.com/artist/2RQXRUsr4IW1f3mKyKsy4B'},"{'href': None, 'total': 2989160}",['pov: indie'],https://api.spotify.com/v1/artists/2RQXRUsr4IW1f3mKyKsy4B,2RQXRUsr4IW1f3mKyKsy4B,"[{'height': 640, 'url': 'https://i.scdn.co/image/ab6761610000e5eb336ec53126239813d38ff588', 'width': 640}, {'height': 320, 'url': 'https://i.scdn.co/image/ab67616100005174336ec53126239813d38ff588', 'width': 320}, {'height': 160, 'url': 'https://i.scdn.co/image/ab6761610000f178336ec53126239813d38ff588', 'width': 160}]",Noah Kahan,84,artist,spotify:artist:2RQXRUsr4IW1f3mKyKsy4B,"Noah Kahan is a singer-songwriter known for his heartfelt and introspective lyrics, blending folk and pop influences to create a captivating sound. With his soulful vocals and emotive storytelling, he has the ability to transport listeners into his world of vulnerability and authenticity."
21,{'spotify': 'https://open.spotify.com/artist/5p9HO3XC5P3BLxJs5Mtrhm'},"{'href': None, 'total': 1425041}","['pov: indie', 'psychedelic pop']",https://api.spotify.com/v1/artists/5p9HO3XC5P3BLxJs5Mtrhm,5p9HO3XC5P3BLxJs5Mtrhm,"[{'height': 640, 'url': 'https://i.scdn.co/image/ab6761610000e5eb02fcc327683d53bea9583c69', 'width': 640}, {'height': 320, 'url': 'https://i.scdn.co/image/ab6761610000517402fcc327683d53bea9583c69', 'width': 320}, {'height': 160, 'url': 'https://i.scdn.co/image/ab6761610000f17802fcc327683d53bea9583c69', 'width': 160}]",Djo,77,artist,spotify:artist:5p9HO3XC5P3BLxJs5Mtrhm,"Djo is a multi-talented singer and artist known for his infectious blend of indie pop and psychedelic rock, creating a dreamy and introspective musical experience. With his smooth vocals and mesmerizing melodies, Djo effortlessly transports listeners into a world of sonic exploration and imaginative storytelling."
22,{'spotify': 'https://open.spotify.com/artist/0PCCGZ0wGLizHt2KZ7hhA2'},"{'href': None, 'total': 779930}",['indie pop'],https://api.spotify.com/v1/artists/0PCCGZ0wGLizHt2KZ7hhA2,0PCCGZ0wGLizHt2KZ7hhA2,"[{'height': 640, 'url': 'https://i.scdn.co/image/ab6761610000e5eb597f1c8c92c4a82734e3af43', 'width': 640}, {'height': 320, 'url': 'https://i.scdn.co/image/ab67616100005174597f1c8c92c4a82734e3af43', 'width': 320}, {'height': 160, 'url': 'https://i.scdn.co/image/ab6761610000f178597f1c8c92c4a82734e3af43', 'width': 160}]",Artemas,81,artist,spotify:artist:0PCCGZ0wGLizHt2KZ7hhA2,Artemas is a mesmerizing singer known for his soulful voice that effortlessly captivates audiences. His unique blend of R&B and pop creates a harmonious atmosphere that resonates with listeners long after the music ends.
23,{'spotify': 'https://open.spotify.com/artist/2QMsj4XJ7ne2hojxt6v5eb'},"{'href': None, 'total': 800875}","['contemporary country', 'modern country pop', 'modern country rock']",https://api.spotify.com/v1/artists/2QMsj4XJ7ne2hojxt6v5eb,2QMsj4XJ7ne2hojxt6v5eb,"[{'height': 640, 'url': 'https://i.scdn.co/image/ab6761610000e5eb9046715ec7bc517a30b02d56', 'width': 640}, {'height': 320, 'url': 'https://i.scdn.co/image/ab676161000051749046715ec7bc517a30b02d56', 'width': 320}, {'height': 160, 'url': 'https://i.scdn.co/image/ab6761610000f1789046715ec7bc517a30b02d56', 'width': 160}]",Riley Green,73,artist,spotify:artist:2QMsj4XJ7ne2hojxt6v5eb,"Riley Green is a country singer-songwriter known for his authentic storytelling and soulful vocals, capturing the essence of small-town life and heartfelt emotions. With a blend of traditional and contemporary country sounds, he effortlessly delivers heartfelt ballads and energetic anthems that resonate with fans of all generations."
24,{'spotify': 'https://open.spotify.com/artist/1UTPBmNbXNTittyMJrNkvw'},"{'href': None, 'total': 7157951}","['classic oklahoma country', 'contemporary country', 'country', 'country road', 'modern country rock']",https://api.spotify.com/v1/artists/1UTPBmNbXNTittyMJrNkvw,1UTPBmNbXNTittyMJrNkvw,"[{'height': 640, 'url': 'https://i.scdn.co/image/ab6761610000e5ebe2cff2190102be30cfb8bfe5', 'width': 640}, {'height': 320, 'url': 'https://i.scdn.co/image/ab67616100005174e2cff2190102be30cfb8bfe5', 'width': 320}, {'height': 160, 'url': 'https://i.scdn.co/image/ab6761610000f178e2cff2190102be30cfb8bfe5', 'width': 160}]",Blake Shelton,74,artist,spotify:artist:1UTPBmNbXNTittyMJrNkvw,"Blake Shelton is a multi-talented country singer known for his deep, distinctive voice and charismatic stage presence. With numerous chart-topping hits and a role as a coach on ""The Voice,"" Shelton has become a household name in the world of country music."
25,{'spotify': 'https://open.spotify.com/artist/2qoQgPAilErOKCwE2Y8wOG'},"{'href': None, 'total': 884403}",['southern hip hop'],https://api.spotify.com/v1/artists/2qoQgPAilErOKCwE2Y8wOG,2qoQgPAilErOKCwE2Y8wOG,"[{'height': 640, 'url': 'https://i.scdn.co/image/ab6761610000e5eb48f4784bc593770915aa192b', 'width': 640}, {'height': 320, 'url': 'https://i.scdn.co/image/ab6761610000517448f4784bc593770915aa192b', 'width': 320}, {'height': 160, 'url': 'https://i.scdn.co/image/ab6761610000f17848f4784bc593770915aa192b', 'width': 160}]",GloRilla,75,artist,spotify:artist:2qoQgPAilErOKCwE2Y8wOG,"GloRilla is an electrifying singer/artist known for his dynamic stage presence and powerful vocal range. With his infectious energy and soulful melodies, he captivates audiences and leaves them craving for more."
26,{'spotify': 'https://open.spotify.com/artist/4V8LLVI7PbaPR0K2TGSxFF'},"{'href': None, 'total': 15462285}","['hip hop', 'rap']",https://api.spotify.com/v1/artists/4V8LLVI7PbaPR0K2TGSxFF,4V8LLVI7PbaPR0K2TGSxFF,"[{'height': 640, 'url': 'https://i.scdn.co/image/ab6761610000e5eb8278b782cbb5a3963db88ada', 'width': 640}, {'height': 320, 'url': 'https://i.scdn.co/image/ab676161000051748278b782cbb5a3963db88ada', 'width': 320}, {'height': 160, 'url': 'https://i.scdn.co/image/ab6761610000f1788278b782cbb5a3963db88ada', 'width': 160}]","Tyler, The Creator",84,artist,spotify:artist:4V8LLVI7PbaPR0K2TGSxFF,"Tyler, The Creator is a boundary-pushing rapper and producer known for his unique blend of introspective and provocative lyrics, accompanied by his raw and energetic delivery. With his genre-defying music and charismatic persona, he has established himself as a bold and influential figure in contemporary hip hop."
27,{'spotify': 'https://open.spotify.com/artist/1Tie3AZgLQZqYEp8Fv4zOZ'},"{'href': None, 'total': 738815}","['classic texas country', 'modern country pop']",https://api.spotify.com/v1/artists/1Tie3AZgLQZqYEp8Fv4zOZ,1Tie3AZgLQZqYEp8Fv4zOZ,"[{'height': 640, 'url': 'https://i.scdn.co/image/ab6761610000e5ebef63196a4cdfd5a8fca36ff0', 'width': 640}, {'height': 320, 'url': 'https://i.scdn.co/image/ab67616100005174ef63196a4cdfd5a8fca36ff0', 'width': 320}, {'height': 160, 'url': 'https://i.scdn.co/image/ab6761610000f178ef63196a4cdfd5a8fca36ff0', 'width': 160}]",Koe Wetzel,74,artist,spotify:artist:1Tie3AZgLQZqYEp8Fv4zOZ,Koe Wetzel is a Texas-based country singer known for his edgy and raw lyrics that blend traditional country with rock and roll. His energetic performances and rebellious persona have made him a rising star in the Texas music scene.
28,{'spotify': 'https://open.spotify.com/artist/2YZyLoL8N0Wb9xBt1NhZWg'},"{'href': None, 'total': 30596284}","['conscious hip hop', 'hip hop', 'rap', 'west coast rap']",https://api.spotify.com/v1/artists/2YZyLoL8N0Wb9xBt1NhZWg,2YZyLoL8N0Wb9xBt1NhZWg,"[{'height': 640, 'url': 'https://i.scdn.co/image/ab6761610000e5eb437b9e2a82505b3d93ff1022', 'width': 640}, {'height': 320, 'url': 'https://i.scdn.co/image/ab67616100005174437b9e2a82505b3d93ff1022', 'width': 320}, {'height': 160, 'url': 'https://i.scdn.co/image/ab6761610000f178437b9e2a82505b3d93ff1022', 'width': 160}]",Kendrick Lamar,92,artist,spotify:artist:2YZyLoL8N0Wb9xBt1NhZWg,"Kendrick Lamar is a highly influential rapper known for his introspective lyrics and socially conscious storytelling, often tackling themes of race, identity, and inequality. With his distinctive flow and thought-provoking messages, he has become a pioneer in the hip-hop industry, earning critical acclaim and multiple Grammy Awards."
29,{'spotify': 'https://open.spotify.com/artist/0iEtIxbK0KxaSlF7G42ZOp'},"{'href': None, 'total': 8561238}",['rap'],https://api.spotify.com/v1/artists/0iEtIxbK0KxaSlF7G42ZOp,0iEtIxbK0KxaSlF7G42ZOp,"[{'height': 640, 'url': 'https://i.scdn.co/image/ab6761610000e5ebdf9a1555f53a20087b8c5a5c', 'width': 640}, {'height': 320, 'url': 'https://i.scdn.co/image/ab67616100005174df9a1555f53a20087b8c5a5c', 'width': 320}, {'height': 160, 'url': 'https://i.scdn.co/image/ab6761610000f178df9a1555f53a20087b8c5a5c', 'width': 160}]",Metro Boomin,90,artist,spotify:artist:0iEtIxbK0KxaSlF7G42ZOp,Metro Boomin is a highly influential and sought-after record producer and songwriter known for his innovative production style and ability to create infectious beats that have dominated the hip-hop scene. His signature sound and collaborations with top artists have solidified his status as one of the most influential producers of his generation.
30,{'spotify': 'https://open.spotify.com/artist/1oSPZhvZMIrWW5I41kPkkY'},"{'href': None, 'total': 8825153}",['k-pop'],https://api.spotify.com/v1/artists/1oSPZhvZMIrWW5I41kPkkY,1oSPZhvZMIrWW5I41kPkkY,"[{'height': 640, 'url': 'https://i.scdn.co/image/ab6761610000e5eb59f8cfc8e71dcaf8c6ec4bde', 'width': 640}, {'height': 320, 'url': 'https://i.scdn.co/image/ab6761610000517459f8cfc8e71dcaf8c6ec4bde', 'width': 320}, {'height': 160, 'url': 'https://i.scdn.co/image/ab6761610000f17859f8cfc8e71dcaf8c6ec4bde', 'width': 160}]",Jimin,84,artist,spotify:artist:1oSPZhvZMIrWW5I41kPkkY,"Jimin is a South Korean singer and dancer known for his captivating stage presence and powerful vocals. With his charismatic charm and mesmerizing performances, he effortlessly captivates audiences worldwide."
31,{'spotify': 'https://open.spotify.com/artist/4GGfAshSkqoxpZdoaHm7ky'},"{'href': None, 'total': 167736}",['modern country pop'],https://api.spotify.com/v1/artists/4GGfAshSkqoxpZdoaHm7ky,4GGfAshSkqoxpZdoaHm7ky,"[{'height': 640, 'url': 'https://i.scdn.co/image/ab6761610000e5ebba81a6b7ab8c0c8d19972ff4', 'width': 640}, {'height': 320, 'url': 'https://i.scdn.co/image/ab67616100005174ba81a6b7ab8c0c8d19972ff4', 'width': 320}, {'height': 160, 'url': 'https://i.scdn.co/image/ab6761610000f178ba81a6b7ab8c0c8d19972ff4', 'width': 160}]",ERNEST,72,artist,spotify:artist:4GGfAshSkqoxpZdoaHm7ky,"ERNEST is a rising country singer known for his powerful vocals and heartfelt lyrics that captivate listeners with their raw emotion. With a soulful voice and a knack for storytelling, ERNEST effortlessly blends traditional country sounds with contemporary elements, creating a unique and captivating musical experience."
32,{'spotify': 'https://open.spotify.com/artist/1Yj5Xey7kTwvZla8sqdsdE'},"{'href': None, 'total': 3283503}","['mambo chileno', 'trap latino', 'urbano chileno', 'urbano latino']",https://api.spotify.com/v1/artists/1Yj5Xey7kTwvZla8sqdsdE,1Yj5Xey7kTwvZla8sqdsdE,"[{'height': 640, 'url': 'https://i.scdn.co/image/ab6761610000e5eb8ec5f4d4241631f8593f52c1', 'width': 640}, {'height': 320, 'url': 'https://i.scdn.co/image/ab676161000051748ec5f4d4241631f8593f52c1', 'width': 320}, {'height': 160, 'url': 'https://i.scdn.co/image/ab6761610000f1788ec5f4d4241631f8593f52c1', 'width': 160}]",Cris Mj,86,artist,spotify:artist:1Yj5Xey7kTwvZla8sqdsdE,"Cris Mj is a charismatic and versatile singer known for his soulful vocals and captivating stage presence. With his unique blend of R&B, pop, and hip-hop, he effortlessly creates an infectious and uplifting musical experience for his audience."
33,{'spotify': 'https://open.spotify.com/artist/1WaFQSHVGZQJTbf0BdxdNo'},"{'href': None, 'total': 550358}",['chill abstract hip hop'],https://api.spotify.com/v1/artists/1WaFQSHVGZQJTbf0BdxdNo,1WaFQSHVGZQJTbf0BdxdNo,"[{'height': 640, 'url': 'https://i.scdn.co/image/ab6761610000e5ebbb330168f192dbdc28fcbd37', 'width': 640}, {'height': 320, 'url': 'https://i.scdn.co/image/ab67616100005174bb330168f192dbdc28fcbd37', 'width': 320}, {'height': 160, 'url': 'https://i.scdn.co/image/ab6761610000f178bb330168f192dbdc28fcbd37', 'width': 160}]",Tommy Richman,83,artist,spotify:artist:1WaFQSHVGZQJTbf0BdxdNo,"Tommy Richman is a charismatic singer with a powerful and soulful voice, captivating audiences with his emotive performances. His music seamlessly blends elements of rock, blues, and folk, creating an authentic and raw sound that resonates deeply with listeners."
34,{'spotify': 'https://open.spotify.com/artist/2tIP7SsRs7vjIcLrU85W8J'},"{'href': None, 'total': 5421213}",['australian hip hop'],https://api.spotify.com/v1/artists/2tIP7SsRs7vjIcLrU85W8J,2tIP7SsRs7vjIcLrU85W8J,"[{'height': 640, 'url': 'https://i.scdn.co/image/ab6761610000e5eb393666951ab8b14e9c4ed386', 'width': 640}, {'height': 320, 'url': 'https://i.scdn.co/image/ab67616100005174393666951ab8b14e9c4ed386', 'width': 320}, {'height': 160, 'url': 'https://i.scdn.co/image/ab6761610000f178393666951ab8b14e9c4ed386', 'width': 160}]",The Kid LAROI,81,artist,spotify:artist:2tIP7SsRs7vjIcLrU85W8J,"The Kid LAROI is a rising Australian singer and rapper known for his emotive lyrics and melodic hooks that seamlessly blend elements of hip-hop and pop. With his raw and vulnerable storytelling, he captures the essence of youth and heartbreak, captivating listeners worldwide."
35,{'spotify': 'https://open.spotify.com/artist/66CXWjxzNUsdJxJ2JdwvnR'},"{'href': None, 'total': 97447102}",['pop'],https://api.spotify.com/v1/artists/66CXWjxzNUsdJxJ2JdwvnR,66CXWjxzNUsdJxJ2JdwvnR,"[{'height': 640, 'url': 'https://i.scdn.co/image/ab6761610000e5eb40b5c07ab77b6b1a9075fdc0', 'width': 640}, {'height': 320, 'url': 'https://i.scdn.co/image/ab6761610000517440b5c07ab77b6b1a9075fdc0', 'width': 320}, {'height': 160, 'url': 'https://i.scdn.co/image/ab6761610000f17840b5c07ab77b6b1a9075fdc0', 'width': 160}]",Ariana Grande,91,artist,spotify:artist:66CXWjxzNUsdJxJ2JdwvnR,"Ariana Grande is a powerhouse pop vocalist known for her impressive vocal range and captivating stage presence. Her music seamlessly blends elements of pop, R&B, and dance, showcasing her versatility as an artist."
36,{'spotify': 'https://open.spotify.com/artist/6BRxQ8cD3eqnrVj6WKDok8'},"{'href': None, 'total': 110168}",['modern country pop'],https://api.spotify.com/v1/artists/6BRxQ8cD3eqnrVj6WKDok8,6BRxQ8cD3eqnrVj6WKDok8,"[{'height': 640, 'url': 'https://i.scdn.co/image/ab6761610000e5eb72f6aec99524045fbfd77598', 'width': 640}, {'height': 320, 'url': 'https://i.scdn.co/image/ab6761610000517472f6aec99524045fbfd77598', 'width': 320}, {'height': 160, 'url': 'https://i.scdn.co/image/ab6761610000f17872f6aec99524045fbfd77598', 'width': 160}]",Ella Langley,67,artist,spotify:artist:6BRxQ8cD3eqnrVj6WKDok8,"Ella Langley is a soulful and captivating singer known for her powerful vocals and emotive performances. With her rich tone and heartfelt lyrics, she effortlessly transports listeners into a world of raw emotions and musical brilliance."
37,{'spotify': 'https://open.spotify.com/artist/33qOK5uJ8AR2xuQQAhHump'},"{'href': None, 'total': 2382544}",['pop'],https://api.spotify.com/v1/artists/33qOK5uJ8AR2xuQQAhHump,33qOK5uJ8AR2xuQQAhHump,"[{'height': 640, 'url': 'https://i.scdn.co/image/ab6761610000e5ebf76e11a5f3c08955fecea690', 'width': 640}, {'height': 320, 'url': 'https://i.scdn.co/image/ab67616100005174f76e11a5f3c08955fecea690', 'width': 320}, {'height': 160, 'url': 'https://i.scdn.co/image/ab6761610000f178f76e11a5f3c08955fecea690', 'width': 160}]",Teddy Swims,82,artist,spotify:artist:33qOK5uJ8AR2xuQQAhHump,"Teddy Swims is a soulful singer and artist known for his powerful, raspy vocals and captivating stage presence. With his unique blend of R&B, pop, and hip-hop influences, he effortlessly captivates listeners with his heartfelt lyrics and soul-stirring performances."
