,preview_url,explicit,type,episode,track,album,artists,disc_number,track_number,duration_ms,external_ids,external_urls,href,id,name,popularity,uri,is_local,rank
0,,True,track,False,True,"{'type': 'album', 'album_type': 'single', 'href': 'https://api.spotify.com/v1/albums/5bBaoign62r1i7OV8w7mi9', 'id': '5bBaoign62r1i7OV8w7mi9', 'images': [{'height': 640, 'url': 'https://i.scdn.co/image/ab67616d0000b273de84adf0e48248ea2d769c3e', 'width': 640}, {'height': 300, 'url': 'https://i.scdn.co/image/ab67616d00001e02de84adf0e48248ea2d769c3e', 'width': 300}, {'height': 64, 'url': 'https://i.scdn.co/image/ab67616d00004851de84adf0e48248ea2d769c3e', 'width': 64}], 'name': 'Please Please Please', 'release_date': '2024-06-06', 'release_date_precision': 'day', 'uri': 'spotify:album:5bBaoign62r1i7OV8w7mi9', 'artists': [{'external_urls': {'spotify': 'https://open.spotify.com/artist/74KM79TiuVKeVCqs8QtB0B'}, 'href': 'https://api.spotify.com/v1/artists/74KM79TiuVKeVCqs8QtB0B', 'id': '74KM79TiuVKeVCqs8QtB0B', 'name': 'Sabrina Carpenter', 'type': 'artist', 'uri': 'spotify:artist:74KM79TiuVKeVCqs8QtB0B'}], 'external_urls': {'spotify': 'https://open.spotify.com/album/5bBaoign62r1i7OV8w7mi9'}, 'total_tracks': 2}","[{'external_urls': {'spotify': 'https://open.spotify.com/artist/74KM79TiuVKeVCqs8QtB0B'}, 'href': 'https://api.spotify.com/v1/artists/74KM79TiuVKeVCqs8QtB0B', 'id': '74KM79TiuVKeVCqs8QtB0B', 'name': 'Sabrina Carpenter', 'type': 'artist', 'uri': 'spotify:artist:74KM79TiuVKeVCqs8QtB0B'}]",1,1,186365,{'isrc': 'USUM72404101'},{'spotify': 'https://open.spotify.com/track/5N3hjp1WNayUPZrA8kJmJP'},https://api.spotify.com/v1/tracks/5N3hjp1WNayUPZrA8kJmJP,5N3hjp1WNayUPZrA8kJmJP,Please Please Please,98,spotify:track:5N3hjp1WNayUPZrA8kJmJP,False,1
1,,True,track,False,True,"{'type': 'album', 'album_type': 'single', 'href': 'https://api.spotify.com/v1/albums/5JjnoGJyOxfSZUZtk2rRwZ', 'id': '5JjnoGJyOxfSZUZtk2rRwZ', 'images': [{'height': 640, 'url': 'https://i.scdn.co/image/ab67616d0000b2731ea0c62b2339cbf493a999ad', 'width': 640}, {'height': 300, 'url': 'https://i.scdn.co/image/ab67616d00001e021ea0c62b2339cbf493a999ad', 'width': 300}, {'height': 64, 'url': 'https://i.scdn.co/image/ab67616d000048511ea0c62b2339cbf493a999ad', 'width': 64}], 'name': 'Not Like Us', 'release_date': '2024-05-04', 'release_date_precision': 'day', 'uri': 'spotify:album:5JjnoGJyOxfSZUZtk2rRwZ', 'artists': [{'external_urls': {'spotify': 'https://open.spotify.com/artist/2YZyLoL8N0Wb9xBt1NhZWg'}, 'href': 'https://api.spotify.com/v1/artists/2YZyLoL8N0Wb9xBt1NhZWg', 'id': '2YZyLoL8N0Wb9xBt1NhZWg', 'name': 'Kendrick Lamar', 'type': 'artist', 'uri': 'spotify:artist:2YZyLoL8N0Wb9xBt1NhZWg'}], 'external_urls': {'spotify': 'https://open.spotify.com/album/5JjnoGJyOxfSZUZtk2rRwZ'}, 'total_tracks': 1}","[{'external_urls': {'spotify': 'https://open.spotify.com/artist/2YZyLoL8N0Wb9xBt1NhZWg'}, 'href': 'https://api.spotify.com/v1/artists/2YZyLoL8N0Wb9xBt1NhZWg', 'id': '2YZyLoL8N0Wb9xBt1NhZWg', 'name': 'Kendrick Lamar', 'type': 'artist', 'uri': 'spotify:artist:2YZyLoL8N0Wb9xBt1NhZWg'}]",1,1,274192,{'isrc': 'USUG12400910'},{'spotify': 'https://open.spotify.com/track/6AI3ezQ4o3HUoP6Dhudph3'},https://api.spotify.com/v1/tracks/6AI3ezQ4o3HUoP6Dhudph3,6AI3ezQ4o3HUoP6Dhudph3,Not Like Us,96,spotify:track:6AI3ezQ4o3HUoP6Dhudph3,False,2
2,https://p.scdn.co/mp3-preview/0c6b7caa5c2962837d1122d45d8b9fe70bec29c0?cid=79ef3ea71075497d9b372f3f6206929a,True,track,False,True,"{'type': 'album', 'album_type': 'album', 'href': 'https://api.spotify.com/v1/albums/0DLvFVIfwt3OHdK9kGeEM3', 'id': '0DLvFVIfwt3OHdK9kGeEM3', 'images': [{'height': 640, 'url': 'https://i.scdn.co/image/ab67616d0000b27360df033c8f8b17384387666a', 'width': 640}, {'height': 300, 'url': 'https://i.scdn.co/image/ab67616d00001e0260df033c8f8b17384387666a', 'width': 300}, {'height': 64, 'url': 'https://i.scdn.co/image/ab67616d0000485160df033c8f8b17384387666a', 'width': 64}], 'name': ""Where I've Been, Isn't Where I'm Going"", 'release_date': '2024-05-31', 'release_date_precision': 'day', 'uri': 'spotify:album:0DLvFVIfwt3OHdK9kGeEM3', 'artists': [{'external_urls': {'spotify': 'https://open.spotify.com/artist/3y2cIKLjiOlp1Np37WiUdH'}, 'href': 'https://api.spotify.com/v1/artists/3y2cIKLjiOlp1Np37WiUdH', 'id': '3y2cIKLjiOlp1Np37WiUdH', 'name': 'Shaboozey', 'type': 'artist', 'uri': 'spotify:artist:3y2cIKLjiOlp1Np37WiUdH'}], 'external_urls': {'spotify': 'https://open.spotify.com/album/0DLvFVIfwt3OHdK9kGeEM3'}, 'total_tracks': 12}","[{'external_urls': {'spotify': 'https://open.spotify.com/artist/3y2cIKLjiOlp1Np37WiUdH'}, 'href': 'https://api.spotify.com/v1/artists/3y2cIKLjiOlp1Np37WiUdH', 'id': '3y2cIKLjiOlp1Np37WiUdH', 'name': 'Shaboozey', 'type': 'artist', 'uri': 'spotify:artist:3y2cIKLjiOlp1Np37WiUdH'}]",1,2,171291,{'isrc': 'USUYG1541249'},{'spotify': 'https://open.spotify.com/track/5fZJQrFKWQLb7FpJXZ1g7K'},https://api.spotify.com/v1/tracks/5fZJQrFKWQLb7FpJXZ1g7K,5fZJQrFKWQLb7FpJXZ1g7K,A Bar Song (Tipsy),86,spotify:track:5fZJQrFKWQLb7FpJXZ1g7K,False,3
3,,True,track,False,True,"{'type': 'album', 'album_type': 'single', 'href': 'https://api.spotify.com/v1/albums/5quMTd5zeI9yW5UDua8wS4', 'id': '5quMTd5zeI9yW5UDua8wS4', 'images': [{'height': 640, 'url': 'https://i.scdn.co/image/ab67616d0000b273659cd4673230913b3918e0d5', 'width': 640}, {'height': 300, 'url': 'https://i.scdn.co/image/ab67616d00001e02659cd4673230913b3918e0d5', 'width': 300}, {'height': 64, 'url': 'https://i.scdn.co/image/ab67616d00004851659cd4673230913b3918e0d5', 'width': 64}], 'name': 'Espresso', 'release_date': '2024-04-12', 'release_date_precision': 'day', 'uri': 'spotify:album:5quMTd5zeI9yW5UDua8wS4', 'artists': [{'external_urls': {'spotify': 'https://open.spotify.com/artist/74KM79TiuVKeVCqs8QtB0B'}, 'href': 'https://api.spotify.com/v1/artists/74KM79TiuVKeVCqs8QtB0B', 'id': '74KM79TiuVKeVCqs8QtB0B', 'name': 'Sabrina Carpenter', 'type': 'artist', 'uri': 'spotify:artist:74KM79TiuVKeVCqs8QtB0B'}], 'external_urls': {'spotify': 'https://open.spotify.com/album/5quMTd5zeI9yW5UDua8wS4'}, 'total_tracks': 1}","[{'external_urls': {'spotify': 'https://open.spotify.com/artist/74KM79TiuVKeVCqs8QtB0B'}, 'href': 'https://api.spotify.com/v1/artists/74KM79TiuVKeVCqs8QtB0B', 'id': '74KM79TiuVKeVCqs8QtB0B', 'name': 'Sabrina Carpenter', 'type': 'artist', 'uri': 'spotify:artist:74KM79TiuVKeVCqs8QtB0B'}]",1,1,175459,{'isrc': 'USUM72403305'},{'spotify': 'https://open.spotify.com/track/2qSkIjg1o9h3YT9RAgYN75'},https://api.spotify.com/v1/tracks/2qSkIjg1o9h3YT9RAgYN75,2qSkIjg1o9h3YT9RAgYN75,Espresso,99,spotify:track:2qSkIjg1o9h3YT9RAgYN75,False,4
4,,True,track,False,True,"{'type': 'album', 'album_type': 'single', 'href': 'https://api.spotify.com/v1/albums/1woYXxyyxTQJ0E0AhZE6mj', 'id': '1woYXxyyxTQJ0E0AhZE6mj', 'images': [{'height': 640, 'url': 'https://i.scdn.co/image/ab67616d0000b27397306976e3eb8aad53b754eb', 'width': 640}, {'height': 300, 'url': 'https://i.scdn.co/image/ab67616d00001e0297306976e3eb8aad53b754eb', 'width': 300}, {'height': 64, 'url': 'https://i.scdn.co/image/ab67616d0000485197306976e3eb8aad53b754eb', 'width': 64}], 'name': 'I Had Some Help', 'release_date': '2024-05-10', 'release_date_precision': 'day', 'uri': 'spotify:album:1woYXxyyxTQJ0E0AhZE6mj', 'artists': [{'external_urls': {'spotify': 'https://open.spotify.com/artist/246dkjvS1zLTtiykXe5h60'}, 'href': 'https://api.spotify.com/v1/artists/246dkjvS1zLTtiykXe5h60', 'id': '246dkjvS1zLTtiykXe5h60', 'name': 'Post Malone', 'type': 'artist', 'uri': 'spotify:artist:246dkjvS1zLTtiykXe5h60'}, {'external_urls': {'spotify': 'https://open.spotify.com/artist/4oUHIQIBe0LHzYfvXNW4QM'}, 'href': 'https://api.spotify.com/v1/artists/4oUHIQIBe0LHzYfvXNW4QM', 'id': '4oUHIQIBe0LHzYfvXNW4QM', 'name': 'Morgan Wallen', 'type': 'artist', 'uri': 'spotify:artist:4oUHIQIBe0LHzYfvXNW4QM'}], 'external_urls': {'spotify': 'https://open.spotify.com/album/1woYXxyyxTQJ0E0AhZE6mj'}, 'total_tracks': 1}","[{'external_urls': {'spotify': 'https://open.spotify.com/artist/246dkjvS1zLTtiykXe5h60'}, 'href': 'https://api.spotify.com/v1/artists/246dkjvS1zLTtiykXe5h60', 'id': '246dkjvS1zLTtiykXe5h60', 'name': 'Post Malone', 'type': 'artist', 'uri': 'spotify:artist:246dkjvS1zLTtiykXe5h60'}, {'external_urls': {'spotify': 'https://open.spotify.com/artist/4oUHIQIBe0LHzYfvXNW4QM'}, 'href': 'https://api.spotify.com/v1/artists/4oUHIQIBe0LHzYfvXNW4QM', 'id': '4oUHIQIBe0LHzYfvXNW4QM', 'name': 'Morgan Wallen', 'type': 'artist', 'uri': 'spotify:artist:4oUHIQIBe0LHzYfvXNW4QM'}]",1,1,178205,{'isrc': 'USUM72404990'},{'spotify': 'https://open.spotify.com/track/7221xIgOnuakPdLqT0F3nP'},https://api.spotify.com/v1/tracks/7221xIgOnuakPdLqT0F3nP,7221xIgOnuakPdLqT0F3nP,I Had Some Help (Feat. Morgan Wallen),95,spotify:track:7221xIgOnuakPdLqT0F3nP,False,5
5,,False,track,False,True,"{'type': 'album', 'album_type': 'album', 'href': 'https://api.spotify.com/v1/albums/7aJuG4TFXa2hmE4z1yxc3n', 'id': '7aJuG4TFXa2hmE4z1yxc3n', 'images': [{'height': 640, 'url': 'https://i.scdn.co/image/ab67616d0000b27371d62ea7ea8a5be92d3c1f62', 'width': 640}, {'height': 300, 'url': 'https://i.scdn.co/image/ab67616d00001e0271d62ea7ea8a5be92d3c1f62', 'width': 300}, {'height': 64, 'url': 'https://i.scdn.co/image/ab67616d0000485171d62ea7ea8a5be92d3c1f62', 'width': 64}], 'name': 'HIT ME HARD AND SOFT', 'release_date': '2024-05-17', 'release_date_precision': 'day', 'uri': 'spotify:album:7aJuG4TFXa2hmE4z1yxc3n', 'artists': [{'external_urls': {'spotify': 'https://open.spotify.com/artist/6qqNVTkY8uBg9cP3Jd7DAH'}, 'href': 'https://api.spotify.com/v1/artists/6qqNVTkY8uBg9cP3Jd7DAH', 'id': '6qqNVTkY8uBg9cP3Jd7DAH', 'name': 'Billie Eilish', 'type': 'artist', 'uri': 'spotify:artist:6qqNVTkY8uBg9cP3Jd7DAH'}], 'external_urls': {'spotify': 'https://open.spotify.com/album/7aJuG4TFXa2hmE4z1yxc3n'}, 'total_tracks': 10}","[{'external_urls': {'spotify': 'https://open.spotify.com/artist/6qqNVTkY8uBg9cP3Jd7DAH'}, 'href': 'https://api.spotify.com/v1/artists/6qqNVTkY8uBg9cP3Jd7DAH', 'id': '6qqNVTkY8uBg9cP3Jd7DAH', 'name': 'Billie Eilish', 'type': 'artist', 'uri': 'spotify:artist:6qqNVTkY8uBg9cP3Jd7DAH'}]",1,4,210373,{'isrc': 'USUM72401994'},{'spotify': 'https://open.spotify.com/track/6dOtVTDdiauQNBQEDOtlAB'},https://api.spotify.com/v1/tracks/6dOtVTDdiauQNBQEDOtlAB,6dOtVTDdiauQNBQEDOtlAB,BIRDS OF A FEATHER,98,spotify:track:6dOtVTDdiauQNBQEDOtlAB,False,6
6,,False,track,False,True,"{'type': 'album', 'album_type': 'single', 'href': 'https://api.spotify.com/v1/albums/1WAjjRMfZjEXtB0lQrAw6Q', 'id': '1WAjjRMfZjEXtB0lQrAw6Q', 'images': [{'height': 640, 'url': 'https://i.scdn.co/image/ab67616d0000b27391b4bc7c88d91a42e0f3a8b7', 'width': 640}, {'height': 300, 'url': 'https://i.scdn.co/image/ab67616d00001e0291b4bc7c88d91a42e0f3a8b7', 'width': 300}, {'height': 64, 'url': 'https://i.scdn.co/image/ab67616d0000485191b4bc7c88d91a42e0f3a8b7', 'width': 64}], 'name': 'Good Luck, Babe!', 'release_date': '2024-04-05', 'release_date_precision': 'day', 'uri': 'spotify:album:1WAjjRMfZjEXtB0lQrAw6Q', 'artists': [{'external_urls': {'spotify': 'https://open.spotify.com/artist/7GlBOeep6PqTfFi59PTUUN'}, 'href': 'https://api.spotify.com/v1/artists/7GlBOeep6PqTfFi59PTUUN', 'id': '7GlBOeep6PqTfFi59PTUUN', 'name': 'Chappell Roan', 'type': 'artist', 'uri': 'spotify:artist:7GlBOeep6PqTfFi59PTUUN'}], 'external_urls': {'spotify': 'https://open.spotify.com/album/1WAjjRMfZjEXtB0lQrAw6Q'}, 'total_tracks': 1}","[{'external_urls': {'spotify': 'https://open.spotify.com/artist/7GlBOeep6PqTfFi59PTUUN'}, 'href': 'https://api.spotify.com/v1/artists/7GlBOeep6PqTfFi59PTUUN', 'id': '7GlBOeep6PqTfFi59PTUUN', 'name': 'Chappell Roan', 'type': 'artist', 'uri': 'spotify:artist:7GlBOeep6PqTfFi59PTUUN'}]",1,1,218423,{'isrc': 'USUG12401967'},{'spotify': 'https://open.spotify.com/track/0WbMK4wrZ1wFSty9F7FCgu'},https://api.spotify.com/v1/tracks/0WbMK4wrZ1wFSty9F7FCgu,0WbMK4wrZ1wFSty9F7FCgu,"Good Luck, Babe!",94,spotify:track:0WbMK4wrZ1wFSty9F7FCgu,False,7
7,,False,track,False,True,"{'type': 'album', 'album_type': 'single', 'href': 'https://api.spotify.com/v1/albums/2Z1gnUf3nbn6DtwZSUIH54', 'id': '2Z1gnUf3nbn6DtwZSUIH54', 'images': [{'height': 640, 'url': 'https://i.scdn.co/image/ab67616d0000b27301c0cd5da820e6128655854f', 'width': 640}, {'height': 300, 'url': 'https://i.scdn.co/image/ab67616d00001e0201c0cd5da820e6128655854f', 'width': 300}, {'height': 64, 'url': 'https://i.scdn.co/image/ab67616d0000485101c0cd5da820e6128655854f', 'width': 64}], 'name': 'MILLION DOLLAR BABY', 'release_date': '2024-04-26', 'release_date_precision': 'day', 'uri': 'spotify:album:2Z1gnUf3nbn6DtwZSUIH54', 'artists': [{'external_urls': {'spotify': 'https://open.spotify.com/artist/1WaFQSHVGZQJTbf0BdxdNo'}, 'href': 'https://api.spotify.com/v1/artists/1WaFQSHVGZQJTbf0BdxdNo', 'id': '1WaFQSHVGZQJTbf0BdxdNo', 'name': 'Tommy Richman', 'type': 'artist', 'uri': 'spotify:artist:1WaFQSHVGZQJTbf0BdxdNo'}], 'external_urls': {'spotify': 'https://open.spotify.com/album/2Z1gnUf3nbn6DtwZSUIH54'}, 'total_tracks': 2}","[{'external_urls': {'spotify': 'https://open.spotify.com/artist/1WaFQSHVGZQJTbf0BdxdNo'}, 'href': 'https://api.spotify.com/v1/artists/1WaFQSHVGZQJTbf0BdxdNo', 'id': '1WaFQSHVGZQJTbf0BdxdNo', 'name': 'Tommy Richman', 'type': 'artist', 'uri': 'spotify:artist:1WaFQSHVGZQJTbf0BdxdNo'}]",1,1,155151,{'isrc': 'QM24S2402528'},{'spotify': 'https://open.spotify.com/track/5AJ9hqTS2wcFQCELCFRO7A'},https://api.spotify.com/v1/tracks/5AJ9hqTS2wcFQCELCFRO7A,5AJ9hqTS2wcFQCELCFRO7A,MILLION DOLLAR BABY,94,spotify:track:5AJ9hqTS2wcFQCELCFRO7A,False,8
8,https://p.scdn.co/mp3-preview/e526daac5ec6c4594ab3760cc48cee835379802d?cid=79ef3ea71075497d9b372f3f6206929a,False,track,False,True,"{'type': 'album', 'album_type': 'album', 'href': 'https://api.spotify.com/v1/albums/3P4SQqMMgjqfqVxgLwtYRk', 'id': '3P4SQqMMgjqfqVxgLwtYRk', 'images': [{'height': 640, 'url': 'https://i.scdn.co/image/ab67616d0000b2733e1b212546dac35443735241', 'width': 640}, {'height': 300, 'url': 'https://i.scdn.co/image/ab67616d00001e023e1b212546dac35443735241', 'width': 300}, {'height': 64, 'url': 'https://i.scdn.co/image/ab67616d000048513e1b212546dac35443735241', 'width': 64}], 'name': 'Unreal Unearth: Unheard', 'release_date': '2024-03-22', 'release_date_precision': 'day', 'uri': 'spotify:album:3P4SQqMMgjqfqVxgLwtYRk', 'artists': [{'external_urls': {'spotify': 'https://open.spotify.com/artist/2FXC3k01G6Gw61bmprjgqS'}, 'href': 'https://api.spotify.com/v1/artists/2FXC3k01G6Gw61bmprjgqS', 'id': '2FXC3k01G6Gw61bmprjgqS', 'name': 'Hozier', 'type': 'artist', 'uri': 'spotify:artist:2FXC3k01G6Gw61bmprjgqS'}], 'external_urls': {'spotify': 'https://open.spotify.com/album/3P4SQqMMgjqfqVxgLwtYRk'}, 'total_tracks': 20}","[{'external_urls': {'spotify': 'https://open.spotify.com/artist/2FXC3k01G6Gw61bmprjgqS'}, 'href': 'https://api.spotify.com/v1/artists/2FXC3k01G6Gw61bmprjgqS', 'id': '2FXC3k01G6Gw61bmprjgqS', 'name': 'Hozier', 'type': 'artist', 'uri': 'spotify:artist:2FXC3k01G6Gw61bmprjgqS'}]",1,1,251424,{'isrc': 'IEACJ2300335'},{'spotify': 'https://open.spotify.com/track/5Z0UnEtpLDQyYlWwgi8m9C'},https://api.spotify.com/v1/tracks/5Z0UnEtpLDQyYlWwgi8m9C,5Z0UnEtpLDQyYlWwgi8m9C,Too Sweet,89,spotify:track:5Z0UnEtpLDQyYlWwgi8m9C,False,9
9,,False,track,False,True,"{'type': 'album', 'album_type': 'album', 'href': 'https://api.spotify.com/v1/albums/0EiI8ylL0FmWWpgHVTsZjZ', 'id': '0EiI8ylL0FmWWpgHVTsZjZ', 'images': [{'height': 640, 'url': 'https://i.scdn.co/image/ab67616d0000b27396fa88fb1789be437d5cb4b6', 'width': 640}, {'height': 300, 'url': 'https://i.scdn.co/image/ab67616d00001e0296fa88fb1789be437d5cb4b6', 'width': 300}, {'height': 64, 'url': 'https://i.scdn.co/image/ab67616d0000485196fa88fb1789be437d5cb4b6', 'width': 64}], 'name': 'The Rise and Fall of a Midwest Princess', 'release_date': '2023-09-22', 'release_date_precision': 'day', 'uri': 'spotify:album:0EiI8ylL0FmWWpgHVTsZjZ', 'artists': [{'external_urls': {'spotify': 'https://open.spotify.com/artist/7GlBOeep6PqTfFi59PTUUN'}, 'href': 'https://api.spotify.com/v1/artists/7GlBOeep6PqTfFi59PTUUN', 'id': '7GlBOeep6PqTfFi59PTUUN', 'name': 'Chappell Roan', 'type': 'artist', 'uri': 'spotify:artist:7GlBOeep6PqTfFi59PTUUN'}], 'external_urls': {'spotify': 'https://open.spotify.com/album/0EiI8ylL0FmWWpgHVTsZjZ'}, 'total_tracks': 14}","[{'external_urls': {'spotify': 'https://open.spotify.com/artist/7GlBOeep6PqTfFi59PTUUN'}, 'href': 'https://api.spotify.com/v1/artists/7GlBOeep6PqTfFi59PTUUN', 'id': '7GlBOeep6PqTfFi59PTUUN', 'name': 'Chappell Roan', 'type': 'artist', 'uri': 'spotify:artist:7GlBOeep6PqTfFi59PTUUN'}]",1,7,184841,{'isrc': 'USUG12305911'},{'spotify': 'https://open.spotify.com/track/4xdBrk0nFZaP54vvZj0yx7'},https://api.spotify.com/v1/tracks/4xdBrk0nFZaP54vvZj0yx7,4xdBrk0nFZaP54vvZj0yx7,HOT TO GO!,88,spotify:track:4xdBrk0nFZaP54vvZj0yx7,False,10
10,https://p.scdn.co/mp3-preview/e213f23e6fe5938299eebbe364d06c1682a6619f?cid=79ef3ea71075497d9b372f3f6206929a,False,track,False,True,"{'type': 'album', 'album_type': 'album', 'href': 'https://api.spotify.com/v1/albums/168CdR21lfn0TTyw1Pkdcm', 'id': '168CdR21lfn0TTyw1Pkdcm', 'images': [{'height': 640, 'url': 'https://i.scdn.co/image/ab67616d0000b273cc04ff3e70e146ba9abacf40', 'width': 640}, {'height': 300, 'url': 'https://i.scdn.co/image/ab67616d00001e02cc04ff3e70e146ba9abacf40', 'width': 300}, {'height': 64, 'url': 'https://i.scdn.co/image/ab67616d00004851cc04ff3e70e146ba9abacf40', 'width': 64}], 'name': 'Fireworks & Rollerblades', 'release_date': '2024-04-05', 'release_date_precision': 'day', 'uri': 'spotify:album:168CdR21lfn0TTyw1Pkdcm', 'artists': [{'external_urls': {'spotify': 'https://open.spotify.com/artist/22wbnEMDvgVIAGdFeek6ET'}, 'href': 'https://api.spotify.com/v1/artists/22wbnEMDvgVIAGdFeek6ET', 'id': '22wbnEMDvgVIAGdFeek6ET', 'name': 'Benson Boone', 'type': 'artist', 'uri': 'spotify:artist:22wbnEMDvgVIAGdFeek6ET'}], 'external_urls': {'spotify': 'https://open.spotify.com/album/168CdR21lfn0TTyw1Pkdcm'}, 'total_tracks': 15}","[{'external_urls': {'spotify': 'https://open.spotify.com/artist/22wbnEMDvgVIAGdFeek6ET'}, 'href': 'https://api.spotify.com/v1/artists/22wbnEMDvgVIAGdFeek6ET', 'id': '22wbnEMDvgVIAGdFeek6ET', 'name': 'Benson Boone', 'type': 'artist', 'uri': 'spotify:artist:22wbnEMDvgVIAGdFeek6ET'}]",1,4,180304,{'isrc': 'USWB12307016'},{'spotify': 'https://open.spotify.com/track/3xkHsmpQCBMytMJNiDf3Ii'},https://api.spotify.com/v1/tracks/3xkHsmpQCBMytMJNiDf3Ii,3xkHsmpQCBMytMJNiDf3Ii,Beautiful Things,90,spotify:track:3xkHsmpQCBMytMJNiDf3Ii,False,11
11,https://p.scdn.co/mp3-preview/21b3562e4483a8b6204f99a0614206b819378ef8?cid=79ef3ea71075497d9b372f3f6206929a,False,track,False,True,"{'type': 'album', 'album_type': 'single', 'href': 'https://api.spotify.com/v1/albums/7LRZfujsTLyy814AnMSdtT', 'id': '7LRZfujsTLyy814AnMSdtT', 'images': [{'height': 640, 'url': 'https://i.scdn.co/image/ab67616d0000b2731a2c9ac2d39bc5c2e22b9555', 'width': 640}, {'height': 300, 'url': 'https://i.scdn.co/image/ab67616d00001e021a2c9ac2d39bc5c2e22b9555', 'width': 300}, {'height': 64, 'url': 'https://i.scdn.co/image/ab67616d000048511a2c9ac2d39bc5c2e22b9555', 'width': 64}], 'name': 'Pink Skies', 'release_date': '2024-05-24', 'release_date_precision': 'day', 'uri': 'spotify:album:7LRZfujsTLyy814AnMSdtT', 'artists': [{'external_urls': {'spotify': 'https://open.spotify.com/artist/40ZNYROS4zLfyyBSs2PGe2'}, 'href': 'https://api.spotify.com/v1/artists/40ZNYROS4zLfyyBSs2PGe2', 'id': '40ZNYROS4zLfyyBSs2PGe2', 'name': 'Zach Bryan', 'type': 'artist', 'uri': 'spotify:artist:40ZNYROS4zLfyyBSs2PGe2'}], 'external_urls': {'spotify': 'https://open.spotify.com/album/7LRZfujsTLyy814AnMSdtT'}, 'total_tracks': 1}","[{'external_urls': {'spotify': 'https://open.spotify.com/artist/40ZNYROS4zLfyyBSs2PGe2'}, 'href': 'https://api.spotify.com/v1/artists/40ZNYROS4zLfyyBSs2PGe2', 'id': '40ZNYROS4zLfyyBSs2PGe2', 'name': 'Zach Bryan', 'type': 'artist', 'uri': 'spotify:artist:40ZNYROS4zLfyyBSs2PGe2'}]",1,1,194920,{'isrc': 'USWB12401947'},{'spotify': 'https://open.spotify.com/track/4ZJ4vzLQekI0WntDbanNC7'},https://api.spotify.com/v1/tracks/4ZJ4vzLQekI0WntDbanNC7,4ZJ4vzLQekI0WntDbanNC7,Pink Skies,89,spotify:track:4ZJ4vzLQekI0WntDbanNC7,False,12
12,https://p.scdn.co/mp3-preview/22b240f7ef2eff38bd12fb0c94dfea5e1d70e20a?cid=79ef3ea71075497d9b372f3f6206929a,False,track,False,True,"{'type': 'album', 'album_type': 'album', 'href': 'https://api.spotify.com/v1/albums/6PbnGueEO6LGodPfvNldYf', 'id': '6PbnGueEO6LGodPfvNldYf', 'images': [{'height': 640, 'url': 'https://i.scdn.co/image/ab67616d0000b273e5a25ed08d1e7e0fbb440cef', 'width': 640}, {'height': 300, 'url': 'https://i.scdn.co/image/ab67616d00001e02e5a25ed08d1e7e0fbb440cef', 'width': 300}, {'height': 64, 'url': 'https://i.scdn.co/image/ab67616d00004851e5a25ed08d1e7e0fbb440cef', 'width': 64}], 'name': 'Zach Bryan', 'release_date': '2023-08-25', 'release_date_precision': 'day', 'uri': 'spotify:album:6PbnGueEO6LGodPfvNldYf', 'artists': [{'external_urls': {'spotify': 'https://open.spotify.com/artist/40ZNYROS4zLfyyBSs2PGe2'}, 'href': 'https://api.spotify.com/v1/artists/40ZNYROS4zLfyyBSs2PGe2', 'id': '40ZNYROS4zLfyyBSs2PGe2', 'name': 'Zach Bryan', 'type': 'artist', 'uri': 'spotify:artist:40ZNYROS4zLfyyBSs2PGe2'}], 'external_urls': {'spotify': 'https://open.spotify.com/album/6PbnGueEO6LGodPfvNldYf'}, 'total_tracks': 16}","[{'external_urls': {'spotify': 'https://open.spotify.com/artist/40ZNYROS4zLfyyBSs2PGe2'}, 'href': 'https://api.spotify.com/v1/artists/40ZNYROS4zLfyyBSs2PGe2', 'id': '40ZNYROS4zLfyyBSs2PGe2', 'name': 'Zach Bryan', 'type': 'artist', 'uri': 'spotify:artist:40ZNYROS4zLfyyBSs2PGe2'}, {'external_urls': {'spotify': 'https://open.spotify.com/artist/70kkdajctXSbqSMJbQO424'}, 'href': 'https://api.spotify.com/v1/artists/70kkdajctXSbqSMJbQO424', 'id': '70kkdajctXSbqSMJbQO424', 'name': 'Kacey Musgraves', 'type': 'artist', 'uri': 'spotify:artist:70kkdajctXSbqSMJbQO424'}]",1,11,227195,{'isrc': 'USWB12304903'},{'spotify': 'https://open.spotify.com/track/4KULAymBBJcPRpk1yO4dOG'},https://api.spotify.com/v1/tracks/4KULAymBBJcPRpk1yO4dOG,4KULAymBBJcPRpk1yO4dOG,I Remember Everything (feat. Kacey Musgraves),88,spotify:track:4KULAymBBJcPRpk1yO4dOG,False,13
13,,True,track,False,True,"{'type': 'album', 'album_type': 'single', 'href': 'https://api.spotify.com/v1/albums/4WvcBQIZXspq4MYyEPNem2', 'id': '4WvcBQIZXspq4MYyEPNem2', 'images': [{'height': 640, 'url': 'https://i.scdn.co/image/ab67616d0000b273f1708ceacc5e678619364239', 'width': 640}, {'height': 300, 'url': 'https://i.scdn.co/image/ab67616d00001e02f1708ceacc5e678619364239', 'width': 300}, {'height': 64, 'url': 'https://i.scdn.co/image/ab67616d00004851f1708ceacc5e678619364239', 'width': 64}], 'name': 'DEVIL IS A LIE', 'release_date': '2024-06-14', 'release_date_precision': 'day', 'uri': 'spotify:album:4WvcBQIZXspq4MYyEPNem2', 'artists': [{'external_urls': {'spotify': 'https://open.spotify.com/artist/1WaFQSHVGZQJTbf0BdxdNo'}, 'href': 'https://api.spotify.com/v1/artists/1WaFQSHVGZQJTbf0BdxdNo', 'id': '1WaFQSHVGZQJTbf0BdxdNo', 'name': 'Tommy Richman', 'type': 'artist', 'uri': 'spotify:artist:1WaFQSHVGZQJTbf0BdxdNo'}], 'external_urls': {'spotify': 'https://open.spotify.com/album/4WvcBQIZXspq4MYyEPNem2'}, 'total_tracks': 1}","[{'external_urls': {'spotify': 'https://open.spotify.com/artist/1WaFQSHVGZQJTbf0BdxdNo'}, 'href': 'https://api.spotify.com/v1/artists/1WaFQSHVGZQJTbf0BdxdNo', 'id': '1WaFQSHVGZQJTbf0BdxdNo', 'name': 'Tommy Richman', 'type': 'artist', 'uri': 'spotify:artist:1WaFQSHVGZQJTbf0BdxdNo'}]",1,1,130944,{'isrc': 'USC4R2445163'},{'spotify': 'https://open.spotify.com/track/6jlG8gBPNAgBgoivw2Ig09'},https://api.spotify.com/v1/tracks/6jlG8gBPNAgBgoivw2Ig09,6jlG8gBPNAgBgoivw2Ig09,DEVIL IS A LIE,86,spotify:track:6jlG8gBPNAgBgoivw2Ig09,False,14
14,,False,track,False,True,"{'type': 'album', 'album_type': 'single', 'href': 'https://api.spotify.com/v1/albums/1WE56xSN0l6bnwGyLeQWdz', 'id': '1WE56xSN0l6bnwGyLeQWdz', 'images': [{'height': 640, 'url': 'https://i.scdn.co/image/ab67616d0000b2730e6e0f5fad0f7419d873acba', 'width': 640}, {'height': 300, 'url': 'https://i.scdn.co/image/ab67616d00001e020e6e0f5fad0f7419d873acba', 'width': 300}, {'height': 64, 'url': 'https://i.scdn.co/image/ab67616d000048510e6e0f5fad0f7419d873acba', 'width': 64}], 'name': 'Pour Me A Drink', 'release_date': '2024-06-21', 'release_date_precision': 'day', 'uri': 'spotify:album:1WE56xSN0l6bnwGyLeQWdz', 'artists': [{'external_urls': {'spotify': 'https://open.spotify.com/artist/246dkjvS1zLTtiykXe5h60'}, 'href': 'https://api.spotify.com/v1/artists/246dkjvS1zLTtiykXe5h60', 'id': '246dkjvS1zLTtiykXe5h60', 'name': 'Post Malone', 'type': 'artist', 'uri': 'spotify:artist:246dkjvS1zLTtiykXe5h60'}, {'external_urls': {'spotify': 'https://open.spotify.com/artist/1UTPBmNbXNTittyMJrNkvw'}, 'href': 'https://api.spotify.com/v1/artists/1UTPBmNbXNTittyMJrNkvw', 'id': '1UTPBmNbXNTittyMJrNkvw', 'name': 'Blake Shelton', 'type': 'artist', 'uri': 'spotify:artist:1UTPBmNbXNTittyMJrNkvw'}], 'external_urls': {'spotify': 'https://open.spotify.com/album/1WE56xSN0l6bnwGyLeQWdz'}, 'total_tracks': 1}","[{'external_urls': {'spotify': 'https://open.spotify.com/artist/246dkjvS1zLTtiykXe5h60'}, 'href': 'https://api.spotify.com/v1/artists/246dkjvS1zLTtiykXe5h60', 'id': '246dkjvS1zLTtiykXe5h60', 'name': 'Post Malone', 'type': 'artist', 'uri': 'spotify:artist:246dkjvS1zLTtiykXe5h60'}, {'external_urls': {'spotify': 'https://open.spotify.com/artist/1UTPBmNbXNTittyMJrNkvw'}, 'href': 'https://api.spotify.com/v1/artists/1UTPBmNbXNTittyMJrNkvw', 'id': '1UTPBmNbXNTittyMJrNkvw', 'name': 'Blake Shelton', 'type': 'artist', 'uri': 'spotify:artist:1UTPBmNbXNTittyMJrNkvw'}]",1,1,195122,{'isrc': 'USUM72405604'},{'spotify': 'https://open.spotify.com/track/5ZLL6wYXeqg0k35ZkDRfhZ'},https://api.spotify.com/v1/tracks/5ZLL6wYXeqg0k35ZkDRfhZ,5ZLL6wYXeqg0k35ZkDRfhZ,Pour Me A Drink (Feat. Blake Shelton),85,spotify:track:5ZLL6wYXeqg0k35ZkDRfhZ,False,15
15,,False,track,False,True,"{'type': 'album', 'album_type': 'album', 'href': 'https://api.spotify.com/v1/albums/7aJuG4TFXa2hmE4z1yxc3n', 'id': '7aJuG4TFXa2hmE4z1yxc3n', 'images': [{'height': 640, 'url': 'https://i.scdn.co/image/ab67616d0000b27371d62ea7ea8a5be92d3c1f62', 'width': 640}, {'height': 300, 'url': 'https://i.scdn.co/image/ab67616d00001e0271d62ea7ea8a5be92d3c1f62', 'width': 300}, {'height': 64, 'url': 'https://i.scdn.co/image/ab67616d0000485171d62ea7ea8a5be92d3c1f62', 'width': 64}], 'name': 'HIT ME HARD AND SOFT', 'release_date': '2024-05-17', 'release_date_precision': 'day', 'uri': 'spotify:album:7aJuG4TFXa2hmE4z1yxc3n', 'artists': [{'external_urls': {'spotify': 'https://open.spotify.com/artist/6qqNVTkY8uBg9cP3Jd7DAH'}, 'href': 'https://api.spotify.com/v1/artists/6qqNVTkY8uBg9cP3Jd7DAH', 'id': '6qqNVTkY8uBg9cP3Jd7DAH', 'name': 'Billie Eilish', 'type': 'artist', 'uri': 'spotify:artist:6qqNVTkY8uBg9cP3Jd7DAH'}], 'external_urls': {'spotify': 'https://open.spotify.com/album/7aJuG4TFXa2hmE4z1yxc3n'}, 'total_tracks': 10}","[{'external_urls': {'spotify': 'https://open.spotify.com/artist/6qqNVTkY8uBg9cP3Jd7DAH'}, 'href': 'https://api.spotify.com/v1/artists/6qqNVTkY8uBg9cP3Jd7DAH', 'id': '6qqNVTkY8uBg9cP3Jd7DAH', 'name': 'Billie Eilish', 'type': 'artist', 'uri': 'spotify:artist:6qqNVTkY8uBg9cP3Jd7DAH'}]",1,2,179586,{'isrc': 'USUM72401991'},{'spotify': 'https://open.spotify.com/track/629DixmZGHc7ILtEntuiWE'},https://api.spotify.com/v1/tracks/629DixmZGHc7ILtEntuiWE,629DixmZGHc7ILtEntuiWE,LUNCH,95,spotify:track:629DixmZGHc7ILtEntuiWE,False,16
16,https://p.scdn.co/mp3-preview/793f43da71fe668c35b72a38ae7f93e783823e17?cid=79ef3ea71075497d9b372f3f6206929a,True,track,False,True,"{'type': 'album', 'album_type': 'album', 'href': 'https://api.spotify.com/v1/albums/4iqbFIdGOTzXeDtt9owjQn', 'id': '4iqbFIdGOTzXeDtt9owjQn', 'images': [{'height': 640, 'url': 'https://i.scdn.co/image/ab67616d0000b273a46b07c291e6dfdee13b3ee8', 'width': 640}, {'height': 300, 'url': 'https://i.scdn.co/image/ab67616d00001e02a46b07c291e6dfdee13b3ee8', 'width': 300}, {'height': 64, 'url': 'https://i.scdn.co/image/ab67616d00004851a46b07c291e6dfdee13b3ee8', 'width': 64}], 'name': ""WE DON'T TRUST YOU"", 'release_date': '2024-03-22', 'release_date_precision': 'day', 'uri': 'spotify:album:4iqbFIdGOTzXeDtt9owjQn', 'artists': [{'external_urls': {'spotify': 'https://open.spotify.com/artist/1RyvyyTE3xzB2ZywiAwp0i'}, 'href': 'https://api.spotify.com/v1/artists/1RyvyyTE3xzB2ZywiAwp0i', 'id': '1RyvyyTE3xzB2ZywiAwp0i', 'name': 'Future', 'type': 'artist', 'uri': 'spotify:artist:1RyvyyTE3xzB2ZywiAwp0i'}, {'external_urls': {'spotify': 'https://open.spotify.com/artist/0iEtIxbK0KxaSlF7G42ZOp'}, 'href': 'https://api.spotify.com/v1/artists/0iEtIxbK0KxaSlF7G42ZOp', 'id': '0iEtIxbK0KxaSlF7G42ZOp', 'name': 'Metro Boomin', 'type': 'artist', 'uri': 'spotify:artist:0iEtIxbK0KxaSlF7G42ZOp'}], 'external_urls': {'spotify': 'https://open.spotify.com/album/4iqbFIdGOTzXeDtt9owjQn'}, 'total_tracks': 17}","[{'external_urls': {'spotify': 'https://open.spotify.com/artist/1RyvyyTE3xzB2ZywiAwp0i'}, 'href': 'https://api.spotify.com/v1/artists/1RyvyyTE3xzB2ZywiAwp0i', 'id': '1RyvyyTE3xzB2ZywiAwp0i', 'name': 'Future', 'type': 'artist', 'uri': 'spotify:artist:1RyvyyTE3xzB2ZywiAwp0i'}, {'external_urls': {'spotify': 'https://open.spotify.com/artist/0iEtIxbK0KxaSlF7G42ZOp'}, 'href': 'https://api.spotify.com/v1/artists/0iEtIxbK0KxaSlF7G42ZOp', 'id': '0iEtIxbK0KxaSlF7G42ZOp', 'name': 'Metro Boomin', 'type': 'artist', 'uri': 'spotify:artist:0iEtIxbK0KxaSlF7G42ZOp'}, {'external_urls': {'spotify': 'https://open.spotify.com/artist/2YZyLoL8N0Wb9xBt1NhZWg'}, 'href': 'https://api.spotify.com/v1/artists/2YZyLoL8N0Wb9xBt1NhZWg', 'id': '2YZyLoL8N0Wb9xBt1NhZWg', 'name': 'Kendrick Lamar', 'type': 'artist', 'uri': 'spotify:artist:2YZyLoL8N0Wb9xBt1NhZWg'}]",1,6,267706,{'isrc': 'USSM12402041'},{'spotify': 'https://open.spotify.com/track/2tudvzsrR56uom6smgOcSf'},https://api.spotify.com/v1/tracks/2tudvzsrR56uom6smgOcSf,2tudvzsrR56uom6smgOcSf,Like That,90,spotify:track:2tudvzsrR56uom6smgOcSf,False,17
17,,True,track,False,True,"{'type': 'album', 'album_type': 'album', 'href': 'https://api.spotify.com/v1/albums/0EiI8ylL0FmWWpgHVTsZjZ', 'id': '0EiI8ylL0FmWWpgHVTsZjZ', 'images': [{'height': 640, 'url': 'https://i.scdn.co/image/ab67616d0000b27396fa88fb1789be437d5cb4b6', 'width': 640}, {'height': 300, 'url': 'https://i.scdn.co/image/ab67616d00001e0296fa88fb1789be437d5cb4b6', 'width': 300}, {'height': 64, 'url': 'https://i.scdn.co/image/ab67616d0000485196fa88fb1789be437d5cb4b6', 'width': 64}], 'name': 'The Rise and Fall of a Midwest Princess', 'release_date': '2023-09-22', 'release_date_precision': 'day', 'uri': 'spotify:album:0EiI8ylL0FmWWpgHVTsZjZ', 'artists': [{'external_urls': {'spotify': 'https://open.spotify.com/artist/7GlBOeep6PqTfFi59PTUUN'}, 'href': 'https://api.spotify.com/v1/artists/7GlBOeep6PqTfFi59PTUUN', 'id': '7GlBOeep6PqTfFi59PTUUN', 'name': 'Chappell Roan', 'type': 'artist', 'uri': 'spotify:artist:7GlBOeep6PqTfFi59PTUUN'}], 'external_urls': {'spotify': 'https://open.spotify.com/album/0EiI8ylL0FmWWpgHVTsZjZ'}, 'total_tracks': 14}","[{'external_urls': {'spotify': 'https://open.spotify.com/artist/7GlBOeep6PqTfFi59PTUUN'}, 'href': 'https://api.spotify.com/v1/artists/7GlBOeep6PqTfFi59PTUUN', 'id': '7GlBOeep6PqTfFi59PTUUN', 'name': 'Chappell Roan', 'type': 'artist', 'uri': 'spotify:artist:7GlBOeep6PqTfFi59PTUUN'}]",1,2,192720,{'isrc': 'USUG12301845'},{'spotify': 'https://open.spotify.com/track/7FOgcfdz9Nx5V9lCNXdBYv'},https://api.spotify.com/v1/tracks/7FOgcfdz9Nx5V9lCNXdBYv,7FOgcfdz9Nx5V9lCNXdBYv,Red Wine Supernova,87,spotify:track:7FOgcfdz9Nx5V9lCNXdBYv,False,18
18,,False,track,False,True,"{'type': 'album', 'album_type': 'album', 'href': 'https://api.spotify.com/v1/albums/6i7mF7whyRJuLJ4ogbH2wh', 'id': '6i7mF7whyRJuLJ4ogbH2wh', 'images': [{'height': 640, 'url': 'https://i.scdn.co/image/ab67616d0000b273705079df9a25a28b452c1fc9', 'width': 640}, {'height': 300, 'url': 'https://i.scdn.co/image/ab67616d00001e02705079df9a25a28b452c1fc9', 'width': 300}, {'height': 64, 'url': 'https://i.scdn.co/image/ab67616d00004851705079df9a25a28b452c1fc9', 'width': 64}], 'name': 'One Thing At A Time', 'release_date': '2023-03-03', 'release_date_precision': 'day', 'uri': 'spotify:album:6i7mF7whyRJuLJ4ogbH2wh', 'artists': [{'external_urls': {'spotify': 'https://open.spotify.com/artist/4oUHIQIBe0LHzYfvXNW4QM'}, 'href': 'https://api.spotify.com/v1/artists/4oUHIQIBe0LHzYfvXNW4QM', 'id': '4oUHIQIBe0LHzYfvXNW4QM', 'name': 'Morgan Wallen', 'type': 'artist', 'uri': 'spotify:artist:4oUHIQIBe0LHzYfvXNW4QM'}], 'external_urls': {'spotify': 'https://open.spotify.com/album/6i7mF7whyRJuLJ4ogbH2wh'}, 'total_tracks': 36}","[{'external_urls': {'spotify': 'https://open.spotify.com/artist/4oUHIQIBe0LHzYfvXNW4QM'}, 'href': 'https://api.spotify.com/v1/artists/4oUHIQIBe0LHzYfvXNW4QM', 'id': '4oUHIQIBe0LHzYfvXNW4QM', 'name': 'Morgan Wallen', 'type': 'artist', 'uri': 'spotify:artist:4oUHIQIBe0LHzYfvXNW4QM'}, {'external_urls': {'spotify': 'https://open.spotify.com/artist/4GGfAshSkqoxpZdoaHm7ky'}, 'href': 'https://api.spotify.com/v1/artists/4GGfAshSkqoxpZdoaHm7ky', 'id': '4GGfAshSkqoxpZdoaHm7ky', 'name': 'ERNEST', 'type': 'artist', 'uri': 'spotify:artist:4GGfAshSkqoxpZdoaHm7ky'}]",1,33,181621,{'isrc': 'USUG12300827'},{'spotify': 'https://open.spotify.com/track/7fveJ3pk1eSfxBdVkzdXZ0'},https://api.spotify.com/v1/tracks/7fveJ3pk1eSfxBdVkzdXZ0,7fveJ3pk1eSfxBdVkzdXZ0,Cowgirls (feat. ERNEST),86,spotify:track:7fveJ3pk1eSfxBdVkzdXZ0,False,19
19,,True,track,False,True,"{'type': 'album', 'album_type': 'single', 'href': 'https://api.spotify.com/v1/albums/6Xuu2z00jxRPZei4IJ9neK', 'id': '6Xuu2z00jxRPZei4IJ9neK', 'images': [{'height': 640, 'url': 'https://i.scdn.co/image/ab67616d0000b273810603c94c9246379604cf1a', 'width': 640}, {'height': 300, 'url': 'https://i.scdn.co/image/ab67616d00001e02810603c94c9246379604cf1a', 'width': 300}, {'height': 64, 'url': 'https://i.scdn.co/image/ab67616d00004851810603c94c9246379604cf1a', 'width': 64}], 'name': 'Houdini', 'release_date': '2024-05-31', 'release_date_precision': 'day', 'uri': 'spotify:album:6Xuu2z00jxRPZei4IJ9neK', 'artists': [{'external_urls': {'spotify': 'https://open.spotify.com/artist/7dGJo4pcD2V6oG8kP0tJRR'}, 'href': 'https://api.spotify.com/v1/artists/7dGJo4pcD2V6oG8kP0tJRR', 'id': '7dGJo4pcD2V6oG8kP0tJRR', 'name': 'Eminem', 'type': 'artist', 'uri': 'spotify:artist:7dGJo4pcD2V6oG8kP0tJRR'}], 'external_urls': {'spotify': 'https://open.spotify.com/album/6Xuu2z00jxRPZei4IJ9neK'}, 'total_tracks': 1}","[{'external_urls': {'spotify': 'https://open.spotify.com/artist/7dGJo4pcD2V6oG8kP0tJRR'}, 'href': 'https://api.spotify.com/v1/artists/7dGJo4pcD2V6oG8kP0tJRR', 'id': '7dGJo4pcD2V6oG8kP0tJRR', 'name': 'Eminem', 'type': 'artist', 'uri': 'spotify:artist:7dGJo4pcD2V6oG8kP0tJRR'}]",1,1,227239,{'isrc': 'USUG12403398'},{'spotify': 'https://open.spotify.com/track/2HYFX63wP3otVIvopRS99Z'},https://api.spotify.com/v1/tracks/2HYFX63wP3otVIvopRS99Z,2HYFX63wP3otVIvopRS99Z,Houdini,94,spotify:track:2HYFX63wP3otVIvopRS99Z,False,20
20,https://p.scdn.co/mp3-preview/51e51cc257e4186893b1923abf42fdaabbeeda37?cid=79ef3ea71075497d9b372f3f6206929a,False,track,False,True,"{'type': 'album', 'album_type': 'album', 'href': 'https://api.spotify.com/v1/albums/7nacKlk586eLRBSIsrk9DB', 'id': '7nacKlk586eLRBSIsrk9DB', 'images': [{'height': 640, 'url': 'https://i.scdn.co/image/ab67616d0000b2731a0323cc23419360a34a3ace', 'width': 640}, {'height': 300, 'url': 'https://i.scdn.co/image/ab67616d00001e021a0323cc23419360a34a3ace', 'width': 300}, {'height': 64, 'url': 'https://i.scdn.co/image/ab67616d000048511a0323cc23419360a34a3ace', 'width': 64}], 'name': ""I've Tried Everything But Therapy (Part 1)"", 'release_date': '2023-09-15', 'release_date_precision': 'day', 'uri': 'spotify:album:7nacKlk586eLRBSIsrk9DB', 'artists': [{'external_urls': {'spotify': 'https://open.spotify.com/artist/33qOK5uJ8AR2xuQQAhHump'}, 'href': 'https://api.spotify.com/v1/artists/33qOK5uJ8AR2xuQQAhHump', 'id': '33qOK5uJ8AR2xuQQAhHump', 'name': 'Teddy Swims', 'type': 'artist', 'uri': 'spotify:artist:33qOK5uJ8AR2xuQQAhHump'}], 'external_urls': {'spotify': 'https://open.spotify.com/album/7nacKlk586eLRBSIsrk9DB'}, 'total_tracks': 10}","[{'external_urls': {'spotify': 'https://open.spotify.com/artist/33qOK5uJ8AR2xuQQAhHump'}, 'href': 'https://api.spotify.com/v1/artists/33qOK5uJ8AR2xuQQAhHump', 'id': '33qOK5uJ8AR2xuQQAhHump', 'name': 'Teddy Swims', 'type': 'artist', 'uri': 'spotify:artist:33qOK5uJ8AR2xuQQAhHump'}]",1,2,210688,{'isrc': 'USWB12302315'},{'spotify': 'https://open.spotify.com/track/17phhZDn6oGtzMe56NuWvj'},https://api.spotify.com/v1/tracks/17phhZDn6oGtzMe56NuWvj,17phhZDn6oGtzMe56NuWvj,Lose Control,90,spotify:track:17phhZDn6oGtzMe56NuWvj,False,21
21,,False,track,False,True,"{'type': 'album', 'album_type': 'album', 'href': 'https://api.spotify.com/v1/albums/50ZenUP4O2Q5eCy2NRNvuz', 'id': '50ZenUP4O2Q5eCy2NRNvuz', 'images': [{'height': 640, 'url': 'https://i.scdn.co/image/ab67616d0000b2736ee35072df1af802cca09918', 'width': 640}, {'height': 300, 'url': 'https://i.scdn.co/image/ab67616d00001e026ee35072df1af802cca09918', 'width': 300}, {'height': 64, 'url': 'https://i.scdn.co/image/ab67616d000048516ee35072df1af802cca09918', 'width': 64}], 'name': 'Stick Season', 'release_date': '2022-10-14', 'release_date_precision': 'day', 'uri': 'spotify:album:50ZenUP4O2Q5eCy2NRNvuz', 'artists': [{'external_urls': {'spotify': 'https://open.spotify.com/artist/2RQXRUsr4IW1f3mKyKsy4B'}, 'href': 'https://api.spotify.com/v1/artists/2RQXRUsr4IW1f3mKyKsy4B', 'id': '2RQXRUsr4IW1f3mKyKsy4B', 'name': 'Noah Kahan', 'type': 'artist', 'uri': 'spotify:artist:2RQXRUsr4IW1f3mKyKsy4B'}], 'external_urls': {'spotify': 'https://open.spotify.com/album/50ZenUP4O2Q5eCy2NRNvuz'}, 'total_tracks': 14}","[{'external_urls': {'spotify': 'https://open.spotify.com/artist/2RQXRUsr4IW1f3mKyKsy4B'}, 'href': 'https://api.spotify.com/v1/artists/2RQXRUsr4IW1f3mKyKsy4B', 'id': '2RQXRUsr4IW1f3mKyKsy4B', 'name': 'Noah Kahan', 'type': 'artist', 'uri': 'spotify:artist:2RQXRUsr4IW1f3mKyKsy4B'}]",1,2,182346,{'isrc': 'USUM72212470'},{'spotify': 'https://open.spotify.com/track/0mflMxspEfB0VbI1kyLiAv'},https://api.spotify.com/v1/tracks/0mflMxspEfB0VbI1kyLiAv,0mflMxspEfB0VbI1kyLiAv,Stick Season,90,spotify:track:0mflMxspEfB0VbI1kyLiAv,False,22
22,,False,track,False,True,"{'type': 'album', 'album_type': 'album', 'href': 'https://api.spotify.com/v1/albums/1Mo4aZ8pdj6L1jx8zSwJnt', 'id': '1Mo4aZ8pdj6L1jx8zSwJnt', 'images': [{'height': 640, 'url': 'https://i.scdn.co/image/ab67616d0000b2735076e4160d018e378f488c33', 'width': 640}, {'height': 300, 'url': 'https://i.scdn.co/image/ab67616d00001e025076e4160d018e378f488c33', 'width': 300}, {'height': 64, 'url': 'https://i.scdn.co/image/ab67616d000048515076e4160d018e378f488c33', 'width': 64}], 'name': 'THE TORTURED POETS DEPARTMENT', 'release_date': '2024-04-18', 'release_date_precision': 'day', 'uri': 'spotify:album:1Mo4aZ8pdj6L1jx8zSwJnt', 'artists': [{'external_urls': {'spotify': 'https://open.spotify.com/artist/06HL4z0CvFAxyc27GXpf02'}, 'href': 'https://api.spotify.com/v1/artists/06HL4z0CvFAxyc27GXpf02', 'id': '06HL4z0CvFAxyc27GXpf02', 'name': 'Taylor Swift', 'type': 'artist', 'uri': 'spotify:artist:06HL4z0CvFAxyc27GXpf02'}], 'external_urls': {'spotify': 'https://open.spotify.com/album/1Mo4aZ8pdj6L1jx8zSwJnt'}, 'total_tracks': 16}","[{'external_urls': {'spotify': 'https://open.spotify.com/artist/06HL4z0CvFAxyc27GXpf02'}, 'href': 'https://api.spotify.com/v1/artists/06HL4z0CvFAxyc27GXpf02', 'id': '06HL4z0CvFAxyc27GXpf02', 'name': 'Taylor Swift', 'type': 'artist', 'uri': 'spotify:artist:06HL4z0CvFAxyc27GXpf02'}, {'external_urls': {'spotify': 'https://open.spotify.com/artist/246dkjvS1zLTtiykXe5h60'}, 'href': 'https://api.spotify.com/v1/artists/246dkjvS1zLTtiykXe5h60', 'id': '246dkjvS1zLTtiykXe5h60', 'name': 'Post Malone', 'type': 'artist', 'uri': 'spotify:artist:246dkjvS1zLTtiykXe5h60'}]",1,1,228965,{'isrc': 'USUG12401028'},{'spotify': 'https://open.spotify.com/track/2OzhQlSqBEmt7hmkYxfT6m'},https://api.spotify.com/v1/tracks/2OzhQlSqBEmt7hmkYxfT6m,2OzhQlSqBEmt7hmkYxfT6m,Fortnight (feat. Post Malone),91,spotify:track:2OzhQlSqBEmt7hmkYxfT6m,False,23
23,https://p.scdn.co/mp3-preview/644df54b3b300c95aed1bf5c47033de23d0aaae1?cid=79ef3ea71075497d9b372f3f6206929a,False,track,False,True,"{'type': 'album', 'album_type': 'album', 'href': 'https://api.spotify.com/v1/albums/63IolVUykZCHMlu2zu9jHS', 'id': '63IolVUykZCHMlu2zu9jHS', 'images': [{'height': 640, 'url': 'https://i.scdn.co/image/ab67616d0000b2732abb30c6296964d5d07458c2', 'width': 640}, {'height': 300, 'url': 'https://i.scdn.co/image/ab67616d00001e022abb30c6296964d5d07458c2', 'width': 300}, {'height': 64, 'url': 'https://i.scdn.co/image/ab67616d000048512abb30c6296964d5d07458c2', 'width': 64}], 'name': 'THE FIRST TIME', 'release_date': '2023-11-10', 'release_date_precision': 'day', 'uri': 'spotify:album:63IolVUykZCHMlu2zu9jHS', 'artists': [{'external_urls': {'spotify': 'https://open.spotify.com/artist/2tIP7SsRs7vjIcLrU85W8J'}, 'href': 'https://api.spotify.com/v1/artists/2tIP7SsRs7vjIcLrU85W8J', 'id': '2tIP7SsRs7vjIcLrU85W8J', 'name': 'The Kid LAROI', 'type': 'artist', 'uri': 'spotify:artist:2tIP7SsRs7vjIcLrU85W8J'}], 'external_urls': {'spotify': 'https://open.spotify.com/album/63IolVUykZCHMlu2zu9jHS'}, 'total_tracks': 20}","[{'external_urls': {'spotify': 'https://open.spotify.com/artist/2tIP7SsRs7vjIcLrU85W8J'}, 'href': 'https://api.spotify.com/v1/artists/2tIP7SsRs7vjIcLrU85W8J', 'id': '2tIP7SsRs7vjIcLrU85W8J', 'name': 'The Kid LAROI', 'type': 'artist', 'uri': 'spotify:artist:2tIP7SsRs7vjIcLrU85W8J'}]",1,8,86983,{'isrc': 'USSM12308065'},{'spotify': 'https://open.spotify.com/track/1XBYiRV30ykHw5f4wm6qEn'},https://api.spotify.com/v1/tracks/1XBYiRV30ykHw5f4wm6qEn,1XBYiRV30ykHw5f4wm6qEn,NIGHTS LIKE THIS,84,spotify:track:1XBYiRV30ykHw5f4wm6qEn,False,24
24,,True,track,False,True,"{'type': 'album', 'album_type': 'album', 'href': 'https://api.spotify.com/v1/albums/6i7mF7whyRJuLJ4ogbH2wh', 'id': '6i7mF7whyRJuLJ4ogbH2wh', 'images': [{'height': 640, 'url': 'https://i.scdn.co/image/ab67616d0000b273705079df9a25a28b452c1fc9', 'width': 640}, {'height': 300, 'url': 'https://i.scdn.co/image/ab67616d00001e02705079df9a25a28b452c1fc9', 'width': 300}, {'height': 64, 'url': 'https://i.scdn.co/image/ab67616d00004851705079df9a25a28b452c1fc9', 'width': 64}], 'name': 'One Thing At A Time', 'release_date': '2023-03-03', 'release_date_precision': 'day', 'uri': 'spotify:album:6i7mF7whyRJuLJ4ogbH2wh', 'artists': [{'external_urls': {'spotify': 'https://open.spotify.com/artist/4oUHIQIBe0LHzYfvXNW4QM'}, 'href': 'https://api.spotify.com/v1/artists/4oUHIQIBe0LHzYfvXNW4QM', 'id': '4oUHIQIBe0LHzYfvXNW4QM', 'name': 'Morgan Wallen', 'type': 'artist', 'uri': 'spotify:artist:4oUHIQIBe0LHzYfvXNW4QM'}], 'external_urls': {'spotify': 'https://open.spotify.com/album/6i7mF7whyRJuLJ4ogbH2wh'}, 'total_tracks': 36}","[{'external_urls': {'spotify': 'https://open.spotify.com/artist/4oUHIQIBe0LHzYfvXNW4QM'}, 'href': 'https://api.spotify.com/v1/artists/4oUHIQIBe0LHzYfvXNW4QM', 'id': '4oUHIQIBe0LHzYfvXNW4QM', 'name': 'Morgan Wallen', 'type': 'artist', 'uri': 'spotify:artist:4oUHIQIBe0LHzYfvXNW4QM'}]",1,2,163854,{'isrc': 'USUG12300802'},{'spotify': 'https://open.spotify.com/track/7K3BhSpAxZBznislvUMVtn'},https://api.spotify.com/v1/tracks/7K3BhSpAxZBznislvUMVtn,7K3BhSpAxZBznislvUMVtn,Last Night,83,spotify:track:7K3BhSpAxZBznislvUMVtn,False,25
25,https://p.scdn.co/mp3-preview/ac9eb85420aa97ed0bd023a08607fcae7fd79d36?cid=79ef3ea71075497d9b372f3f6206929a,True,track,False,True,"{'type': 'album', 'album_type': 'album', 'href': 'https://api.spotify.com/v1/albums/40HsqPqeSR9Xe3IyAJWr6e', 'id': '40HsqPqeSR9Xe3IyAJWr6e', 'images': [{'height': 640, 'url': 'https://i.scdn.co/image/ab67616d0000b2734ccf88b66e04cfd247f287eb', 'width': 640}, {'height': 300, 'url': 'https://i.scdn.co/image/ab67616d00001e024ccf88b66e04cfd247f287eb', 'width': 300}, {'height': 64, 'url': 'https://i.scdn.co/image/ab67616d000048514ccf88b66e04cfd247f287eb', 'width': 64}], 'name': 'What Happens Now?', 'release_date': '2024-02-16', 'release_date_precision': 'day', 'uri': 'spotify:album:40HsqPqeSR9Xe3IyAJWr6e', 'artists': [{'external_urls': {'spotify': 'https://open.spotify.com/artist/7Ez6lTtSMjMf2YSYpukP1I'}, 'href': 'https://api.spotify.com/v1/artists/7Ez6lTtSMjMf2YSYpukP1I', 'id': '7Ez6lTtSMjMf2YSYpukP1I', 'name': 'Dasha', 'type': 'artist', 'uri': 'spotify:artist:7Ez6lTtSMjMf2YSYpukP1I'}], 'external_urls': {'spotify': 'https://open.spotify.com/album/40HsqPqeSR9Xe3IyAJWr6e'}, 'total_tracks': 8}","[{'external_urls': {'spotify': 'https://open.spotify.com/artist/7Ez6lTtSMjMf2YSYpukP1I'}, 'href': 'https://api.spotify.com/v1/artists/7Ez6lTtSMjMf2YSYpukP1I', 'id': '7Ez6lTtSMjMf2YSYpukP1I', 'name': 'Dasha', 'type': 'artist', 'uri': 'spotify:artist:7Ez6lTtSMjMf2YSYpukP1I'}]",1,4,171782,{'isrc': 'QZTB92360479'},{'spotify': 'https://open.spotify.com/track/2uqYupMHANxnwgeiXTZXzd'},https://api.spotify.com/v1/tracks/2uqYupMHANxnwgeiXTZXzd,2uqYupMHANxnwgeiXTZXzd,Austin (Boots Stop Workin'),91,spotify:track:2uqYupMHANxnwgeiXTZXzd,False,26
26,,False,track,False,True,"{'type': 'album', 'album_type': 'album', 'href': 'https://api.spotify.com/v1/albums/0EiI8ylL0FmWWpgHVTsZjZ', 'id': '0EiI8ylL0FmWWpgHVTsZjZ', 'images': [{'height': 640, 'url': 'https://i.scdn.co/image/ab67616d0000b27396fa88fb1789be437d5cb4b6', 'width': 640}, {'height': 300, 'url': 'https://i.scdn.co/image/ab67616d00001e0296fa88fb1789be437d5cb4b6', 'width': 300}, {'height': 64, 'url': 'https://i.scdn.co/image/ab67616d0000485196fa88fb1789be437d5cb4b6', 'width': 64}], 'name': 'The Rise and Fall of a Midwest Princess', 'release_date': '2023-09-22', 'release_date_precision': 'day', 'uri': 'spotify:album:0EiI8ylL0FmWWpgHVTsZjZ', 'artists': [{'external_urls': {'spotify': 'https://open.spotify.com/artist/7GlBOeep6PqTfFi59PTUUN'}, 'href': 'https://api.spotify.com/v1/artists/7GlBOeep6PqTfFi59PTUUN', 'id': '7GlBOeep6PqTfFi59PTUUN', 'name': 'Chappell Roan', 'type': 'artist', 'uri': 'spotify:artist:7GlBOeep6PqTfFi59PTUUN'}], 'external_urls': {'spotify': 'https://open.spotify.com/album/0EiI8ylL0FmWWpgHVTsZjZ'}, 'total_tracks': 14}","[{'external_urls': {'spotify': 'https://open.spotify.com/artist/7GlBOeep6PqTfFi59PTUUN'}, 'href': 'https://api.spotify.com/v1/artists/7GlBOeep6PqTfFi59PTUUN', 'id': '7GlBOeep6PqTfFi59PTUUN', 'name': 'Chappell Roan', 'type': 'artist', 'uri': 'spotify:artist:7GlBOeep6PqTfFi59PTUUN'}]",1,11,258034,{'isrc': 'USAT22001300'},{'spotify': 'https://open.spotify.com/track/1k2pQc5i348DCHwbn5KTdc'},https://api.spotify.com/v1/tracks/1k2pQc5i348DCHwbn5KTdc,1k2pQc5i348DCHwbn5KTdc,Pink Pony Club,84,spotify:track:1k2pQc5i348DCHwbn5KTdc,False,27
27,https://p.scdn.co/mp3-preview/23747e3344e13a359439fb5d2167a79fb5761696?cid=79ef3ea71075497d9b372f3f6206929a,False,track,False,True,"{'type': 'album', 'album_type': 'single', 'href': 'https://api.spotify.com/v1/albums/69iNwop7x6VMhFMLEEtY1j', 'id': '69iNwop7x6VMhFMLEEtY1j', 'images': [{'height': 640, 'url': 'https://i.scdn.co/image/ab67616d0000b27398ec50a022a61a0286f0be1c', 'width': 640}, {'height': 300, 'url': 'https://i.scdn.co/image/ab67616d00001e0298ec50a022a61a0286f0be1c', 'width': 300}, {'height': 64, 'url': 'https://i.scdn.co/image/ab67616d0000485198ec50a022a61a0286f0be1c', 'width': 64}], 'name': 'you look like you love me (feat. Riley Green)', 'release_date': '2024-06-21', 'release_date_precision': 'day', 'uri': 'spotify:album:69iNwop7x6VMhFMLEEtY1j', 'artists': [{'external_urls': {'spotify': 'https://open.spotify.com/artist/6BRxQ8cD3eqnrVj6WKDok8'}, 'href': 'https://api.spotify.com/v1/artists/6BRxQ8cD3eqnrVj6WKDok8', 'id': '6BRxQ8cD3eqnrVj6WKDok8', 'name': 'Ella Langley', 'type': 'artist', 'uri': 'spotify:artist:6BRxQ8cD3eqnrVj6WKDok8'}, {'external_urls': {'spotify': 'https://open.spotify.com/artist/2QMsj4XJ7ne2hojxt6v5eb'}, 'href': 'https://api.spotify.com/v1/artists/2QMsj4XJ7ne2hojxt6v5eb', 'id': '2QMsj4XJ7ne2hojxt6v5eb', 'name': 'Riley Green', 'type': 'artist', 'uri': 'spotify:artist:2QMsj4XJ7ne2hojxt6v5eb'}], 'external_urls': {'spotify': 'https://open.spotify.com/album/69iNwop7x6VMhFMLEEtY1j'}, 'total_tracks': 1}","[{'external_urls': {'spotify': 'https://open.spotify.com/artist/6BRxQ8cD3eqnrVj6WKDok8'}, 'href': 'https://api.spotify.com/v1/artists/6BRxQ8cD3eqnrVj6WKDok8', 'id': '6BRxQ8cD3eqnrVj6WKDok8', 'name': 'Ella Langley', 'type': 'artist', 'uri': 'spotify:artist:6BRxQ8cD3eqnrVj6WKDok8'}, {'external_urls': {'spotify': 'https://open.spotify.com/artist/2QMsj4XJ7ne2hojxt6v5eb'}, 'href': 'https://api.spotify.com/v1/artists/2QMsj4XJ7ne2hojxt6v5eb', 'id': '2QMsj4XJ7ne2hojxt6v5eb', 'name': 'Riley Green', 'type': 'artist', 'uri': 'spotify:artist:2QMsj4XJ7ne2hojxt6v5eb'}]",1,1,224280,{'isrc': 'USSM12401853'},{'spotify': 'https://open.spotify.com/track/0y5Ex8oQ8zCH5TQxHUy1Eo'},https://api.spotify.com/v1/tracks/0y5Ex8oQ8zCH5TQxHUy1Eo,0y5Ex8oQ8zCH5TQxHUy1Eo,you look like you love me (feat. Riley Green),80,spotify:track:0y5Ex8oQ8zCH5TQxHUy1Eo,False,28
28,https://p.scdn.co/mp3-preview/d33dc9df586e24c9d8f640df08b776d94680f529?cid=79ef3ea71075497d9b372f3f6206929a,False,track,False,True,"{'type': 'album', 'album_type': 'single', 'href': 'https://api.spotify.com/v1/albums/1CmTOKCeyz1aHH04OwvTPv', 'id': '1CmTOKCeyz1aHH04OwvTPv', 'images': [{'height': 640, 'url': 'https://i.scdn.co/image/ab67616d0000b273b2b6670e3aca9bcd55fbabbb', 'width': 640}, {'height': 300, 'url': 'https://i.scdn.co/image/ab67616d00001e02b2b6670e3aca9bcd55fbabbb', 'width': 300}, {'height': 64, 'url': 'https://i.scdn.co/image/ab67616d00004851b2b6670e3aca9bcd55fbabbb', 'width': 64}], 'name': 'Something in the Orange', 'release_date': '2022-04-22', 'release_date_precision': 'day', 'uri': 'spotify:album:1CmTOKCeyz1aHH04OwvTPv', 'artists': [{'external_urls': {'spotify': 'https://open.spotify.com/artist/40ZNYROS4zLfyyBSs2PGe2'}, 'href': 'https://api.spotify.com/v1/artists/40ZNYROS4zLfyyBSs2PGe2', 'id': '40ZNYROS4zLfyyBSs2PGe2', 'name': 'Zach Bryan', 'type': 'artist', 'uri': 'spotify:artist:40ZNYROS4zLfyyBSs2PGe2'}], 'external_urls': {'spotify': 'https://open.spotify.com/album/1CmTOKCeyz1aHH04OwvTPv'}, 'total_tracks': 4}","[{'external_urls': {'spotify': 'https://open.spotify.com/artist/40ZNYROS4zLfyyBSs2PGe2'}, 'href': 'https://api.spotify.com/v1/artists/40ZNYROS4zLfyyBSs2PGe2', 'id': '40ZNYROS4zLfyyBSs2PGe2', 'name': 'Zach Bryan', 'type': 'artist', 'uri': 'spotify:artist:40ZNYROS4zLfyyBSs2PGe2'}]",1,1,228013,{'isrc': 'USWB12201213'},{'spotify': 'https://open.spotify.com/track/3WMj8moIAXJhHsyLaqIIHI'},https://api.spotify.com/v1/tracks/3WMj8moIAXJhHsyLaqIIHI,3WMj8moIAXJhHsyLaqIIHI,Something in the Orange,86,spotify:track:3WMj8moIAXJhHsyLaqIIHI,False,29
29,https://p.scdn.co/mp3-preview/93aa7e2fe20c76296a5d256a8e19187a015fb1c7?cid=79ef3ea71075497d9b372f3f6206929a,True,track,False,True,"{'type': 'album', 'album_type': 'single', 'href': 'https://api.spotify.com/v1/albums/3Ca58JR3vDDMl5i8QKkWzP', 'id': '3Ca58JR3vDDMl5i8QKkWzP', 'images': [{'height': 640, 'url': 'https://i.scdn.co/image/ab67616d0000b273f9017bcd001d030d46850226', 'width': 640}, {'height': 300, 'url': 'https://i.scdn.co/image/ab67616d00001e02f9017bcd001d030d46850226', 'width': 300}, {'height': 64, 'url': 'https://i.scdn.co/image/ab67616d00004851f9017bcd001d030d46850226', 'width': 64}], 'name': 'Heading South', 'release_date': '2019-09-30', 'release_date_precision': 'day', 'uri': 'spotify:album:3Ca58JR3vDDMl5i8QKkWzP', 'artists': [{'external_urls': {'spotify': 'https://open.spotify.com/artist/40ZNYROS4zLfyyBSs2PGe2'}, 'href': 'https://api.spotify.com/v1/artists/40ZNYROS4zLfyyBSs2PGe2', 'id': '40ZNYROS4zLfyyBSs2PGe2', 'name': 'Zach Bryan', 'type': 'artist', 'uri': 'spotify:artist:40ZNYROS4zLfyyBSs2PGe2'}], 'external_urls': {'spotify': 'https://open.spotify.com/album/3Ca58JR3vDDMl5i8QKkWzP'}, 'total_tracks': 1}","[{'external_urls': {'spotify': 'https://open.spotify.com/artist/40ZNYROS4zLfyyBSs2PGe2'}, 'href': 'https://api.spotify.com/v1/artists/40ZNYROS4zLfyyBSs2PGe2', 'id': '40ZNYROS4zLfyyBSs2PGe2', 'name': 'Zach Bryan', 'type': 'artist', 'uri': 'spotify:artist:40ZNYROS4zLfyyBSs2PGe2'}]",1,1,171692,{'isrc': 'TCAEL1937212'},{'spotify': 'https://open.spotify.com/track/2Dct3GykKZ58hpWRFfe2Qd'},https://api.spotify.com/v1/tracks/2Dct3GykKZ58hpWRFfe2Qd,2Dct3GykKZ58hpWRFfe2Qd,Heading South,85,spotify:track:2Dct3GykKZ58hpWRFfe2Qd,False,30
30,,False,track,False,True,"{'type': 'album', 'album_type': 'album', 'href': 'https://api.spotify.com/v1/albums/6i7mF7whyRJuLJ4ogbH2wh', 'id': '6i7mF7whyRJuLJ4ogbH2wh', 'images': [{'height': 640, 'url': 'https://i.scdn.co/image/ab67616d0000b273705079df9a25a28b452c1fc9', 'width': 640}, {'height': 300, 'url': 'https://i.scdn.co/image/ab67616d00001e02705079df9a25a28b452c1fc9', 'width': 300}, {'height': 64, 'url': 'https://i.scdn.co/image/ab67616d00004851705079df9a25a28b452c1fc9', 'width': 64}], 'name': 'One Thing At A Time', 'release_date': '2023-03-03', 'release_date_precision': 'day', 'uri': 'spotify:album:6i7mF7whyRJuLJ4ogbH2wh', 'artists': [{'external_urls': {'spotify': 'https://open.spotify.com/artist/4oUHIQIBe0LHzYfvXNW4QM'}, 'href': 'https://api.spotify.com/v1/artists/4oUHIQIBe0LHzYfvXNW4QM', 'id': '4oUHIQIBe0LHzYfvXNW4QM', 'name': 'Morgan Wallen', 'type': 'artist', 'uri': 'spotify:artist:4oUHIQIBe0LHzYfvXNW4QM'}], 'external_urls': {'spotify': 'https://open.spotify.com/album/6i7mF7whyRJuLJ4ogbH2wh'}, 'total_tracks': 36}","[{'external_urls': {'spotify': 'https://open.spotify.com/artist/4oUHIQIBe0LHzYfvXNW4QM'}, 'href': 'https://api.spotify.com/v1/artists/4oUHIQIBe0LHzYfvXNW4QM', 'id': '4oUHIQIBe0LHzYfvXNW4QM', 'name': 'Morgan Wallen', 'type': 'artist', 'uri': 'spotify:artist:4oUHIQIBe0LHzYfvXNW4QM'}]",1,16,157477,{'isrc': 'USUG12203266'},{'spotify': 'https://open.spotify.com/track/5W4kiM2cUYBJXKRudNyxjW'},https://api.spotify.com/v1/tracks/5W4kiM2cUYBJXKRudNyxjW,5W4kiM2cUYBJXKRudNyxjW,You Proof,83,spotify:track:5W4kiM2cUYBJXKRudNyxjW,False,31
31,https://p.scdn.co/mp3-preview/12ae7f061a9da14a7c1e6a3e21de68365697efe8?cid=79ef3ea71075497d9b372f3f6206929a,True,track,False,True,"{'type': 'album', 'album_type': 'single', 'href': 'https://api.spotify.com/v1/albums/5tSQtQGkrCJx3hoQxmLgfM', 'id': '5tSQtQGkrCJx3hoQxmLgfM', 'images': [{'height': 640, 'url': 'https://i.scdn.co/image/ab67616d0000b273c4583f3ad76630879a75450a', 'width': 640}, {'height': 300, 'url': 'https://i.scdn.co/image/ab67616d00001e02c4583f3ad76630879a75450a', 'width': 300}, {'height': 64, 'url': 'https://i.scdn.co/image/ab67616d00004851c4583f3ad76630879a75450a', 'width': 64}], 'name': 'Gata Only', 'release_date': '2024-02-02', 'release_date_precision': 'day', 'uri': 'spotify:album:5tSQtQGkrCJx3hoQxmLgfM', 'artists': [{'external_urls': {'spotify': 'https://open.spotify.com/artist/7CvTknweLr9feJtRGrpDBy'}, 'href': 'https://api.spotify.com/v1/artists/7CvTknweLr9feJtRGrpDBy', 'id': '7CvTknweLr9feJtRGrpDBy', 'name': 'FloyyMenor', 'type': 'artist', 'uri': 'spotify:artist:7CvTknweLr9feJtRGrpDBy'}, {'external_urls': {'spotify': 'https://open.spotify.com/artist/1Yj5Xey7kTwvZla8sqdsdE'}, 'href': 'https://api.spotify.com/v1/artists/1Yj5Xey7kTwvZla8sqdsdE', 'id': '1Yj5Xey7kTwvZla8sqdsdE', 'name': 'Cris Mj', 'type': 'artist', 'uri': 'spotify:artist:1Yj5Xey7kTwvZla8sqdsdE'}], 'external_urls': {'spotify': 'https://open.spotify.com/album/5tSQtQGkrCJx3hoQxmLgfM'}, 'total_tracks': 1}","[{'external_urls': {'spotify': 'https://open.spotify.com/artist/7CvTknweLr9feJtRGrpDBy'}, 'href': 'https://api.spotify.com/v1/artists/7CvTknweLr9feJtRGrpDBy', 'id': '7CvTknweLr9feJtRGrpDBy', 'name': 'FloyyMenor', 'type': 'artist', 'uri': 'spotify:artist:7CvTknweLr9feJtRGrpDBy'}, {'external_urls': {'spotify': 'https://open.spotify.com/artist/1Yj5Xey7kTwvZla8sqdsdE'}, 'href': 'https://api.spotify.com/v1/artists/1Yj5Xey7kTwvZla8sqdsdE', 'id': '1Yj5Xey7kTwvZla8sqdsdE', 'name': 'Cris Mj', 'type': 'artist', 'uri': 'spotify:artist:1Yj5Xey7kTwvZla8sqdsdE'}]",1,1,222000,{'isrc': 'QZL382406049'},{'spotify': 'https://open.spotify.com/track/6XjDF6nds4DE2BBbagZol6'},https://api.spotify.com/v1/tracks/6XjDF6nds4DE2BBbagZol6,6XjDF6nds4DE2BBbagZol6,Gata Only,96,spotify:track:6XjDF6nds4DE2BBbagZol6,False,32
32,,True,track,False,True,"{'type': 'album', 'album_type': 'album', 'href': 'https://api.spotify.com/v1/albums/1Mo4aZ8pdj6L1jx8zSwJnt', 'id': '1Mo4aZ8pdj6L1jx8zSwJnt', 'images': [{'height': 640, 'url': 'https://i.scdn.co/image/ab67616d0000b2735076e4160d018e378f488c33', 'width': 640}, {'height': 300, 'url': 'https://i.scdn.co/image/ab67616d00001e025076e4160d018e378f488c33', 'width': 300}, {'height': 64, 'url': 'https://i.scdn.co/image/ab67616d000048515076e4160d018e378f488c33', 'width': 64}], 'name': 'THE TORTURED POETS DEPARTMENT', 'release_date': '2024-04-18', 'release_date_precision': 'day', 'uri': 'spotify:album:1Mo4aZ8pdj6L1jx8zSwJnt', 'artists': [{'external_urls': {'spotify': 'https://open.spotify.com/artist/06HL4z0CvFAxyc27GXpf02'}, 'href': 'https://api.spotify.com/v1/artists/06HL4z0CvFAxyc27GXpf02', 'id': '06HL4z0CvFAxyc27GXpf02', 'name': 'Taylor Swift', 'type': 'artist', 'uri': 'spotify:artist:06HL4z0CvFAxyc27GXpf02'}], 'external_urls': {'spotify': 'https://open.spotify.com/album/1Mo4aZ8pdj6L1jx8zSwJnt'}, 'total_tracks': 16}","[{'external_urls': {'spotify': 'https://open.spotify.com/artist/06HL4z0CvFAxyc27GXpf02'}, 'href': 'https://api.spotify.com/v1/artists/06HL4z0CvFAxyc27GXpf02', 'id': '06HL4z0CvFAxyc27GXpf02', 'name': 'Taylor Swift', 'type': 'artist', 'uri': 'spotify:artist:06HL4z0CvFAxyc27GXpf02'}]",1,13,218004,{'isrc': 'USUG12401040'},{'spotify': 'https://open.spotify.com/track/4q5YezDOIPcoLr8R81x9qy'},https://api.spotify.com/v1/tracks/4q5YezDOIPcoLr8R81x9qy,4q5YezDOIPcoLr8R81x9qy,I Can Do It With a Broken Heart,87,spotify:track:4q5YezDOIPcoLr8R81x9qy,False,33
33,,False,track,False,True,"{'type': 'album', 'album_type': 'album', 'href': 'https://api.spotify.com/v1/albums/7aJuG4TFXa2hmE4z1yxc3n', 'id': '7aJuG4TFXa2hmE4z1yxc3n', 'images': [{'height': 640, 'url': 'https://i.scdn.co/image/ab67616d0000b27371d62ea7ea8a5be92d3c1f62', 'width': 640}, {'height': 300, 'url': 'https://i.scdn.co/image/ab67616d00001e0271d62ea7ea8a5be92d3c1f62', 'width': 300}, {'height': 64, 'url': 'https://i.scdn.co/image/ab67616d0000485171d62ea7ea8a5be92d3c1f62', 'width': 64}], 'name': 'HIT ME HARD AND SOFT', 'release_date': '2024-05-17', 'release_date_precision': 'day', 'uri': 'spotify:album:7aJuG4TFXa2hmE4z1yxc3n', 'artists': [{'external_urls': {'spotify': 'https://open.spotify.com/artist/6qqNVTkY8uBg9cP3Jd7DAH'}, 'href': 'https://api.spotify.com/v1/artists/6qqNVTkY8uBg9cP3Jd7DAH', 'id': '6qqNVTkY8uBg9cP3Jd7DAH', 'name': 'Billie Eilish', 'type': 'artist', 'uri': 'spotify:artist:6qqNVTkY8uBg9cP3Jd7DAH'}], 'external_urls': {'spotify': 'https://open.spotify.com/album/7aJuG4TFXa2hmE4z1yxc3n'}, 'total_tracks': 10}","[{'external_urls': {'spotify': 'https://open.spotify.com/artist/6qqNVTkY8uBg9cP3Jd7DAH'}, 'href': 'https://api.spotify.com/v1/artists/6qqNVTkY8uBg9cP3Jd7DAH', 'id': '6qqNVTkY8uBg9cP3Jd7DAH', 'name': 'Billie Eilish', 'type': 'artist', 'uri': 'spotify:artist:6qqNVTkY8uBg9cP3Jd7DAH'}]",1,3,303440,{'isrc': 'USUM72401988'},{'spotify': 'https://open.spotify.com/track/7BRD7x5pt8Lqa1eGYC4dzj'},https://api.spotify.com/v1/tracks/7BRD7x5pt8Lqa1eGYC4dzj,7BRD7x5pt8Lqa1eGYC4dzj,CHIHIRO,93,spotify:track:7BRD7x5pt8Lqa1eGYC4dzj,False,34
34,https://p.scdn.co/mp3-preview/c703198293891e3b276800ea6b187cf7951d3d7d?cid=79ef3ea71075497d9b372f3f6206929a,True,track,False,True,"{'type': 'album', 'album_type': 'album', 'href': 'https://api.spotify.com/v1/albums/2nkto6YNI4rUYTLqEwWJ3o', 'id': '2nkto6YNI4rUYTLqEwWJ3o', 'images': [{'height': 640, 'url': 'https://i.scdn.co/image/ab67616d0000b2738940ac99f49e44f59e6f7fb3', 'width': 640}, {'height': 300, 'url': 'https://i.scdn.co/image/ab67616d00001e028940ac99f49e44f59e6f7fb3', 'width': 300}, {'height': 64, 'url': 'https://i.scdn.co/image/ab67616d000048518940ac99f49e44f59e6f7fb3', 'width': 64}], 'name': 'Flower Boy', 'release_date': '2017-07-21', 'release_date_precision': 'day', 'uri': 'spotify:album:2nkto6YNI4rUYTLqEwWJ3o', 'artists': [{'external_urls': {'spotify': 'https://open.spotify.com/artist/4V8LLVI7PbaPR0K2TGSxFF'}, 'href': 'https://api.spotify.com/v1/artists/4V8LLVI7PbaPR0K2TGSxFF', 'id': '4V8LLVI7PbaPR0K2TGSxFF', 'name': 'Tyler, The Creator', 'type': 'artist', 'uri': 'spotify:artist:4V8LLVI7PbaPR0K2TGSxFF'}], 'external_urls': {'spotify': 'https://open.spotify.com/album/2nkto6YNI4rUYTLqEwWJ3o'}, 'total_tracks': 14}","[{'external_urls': {'spotify': 'https://open.spotify.com/artist/4V8LLVI7PbaPR0K2TGSxFF'}, 'href': 'https://api.spotify.com/v1/artists/4V8LLVI7PbaPR0K2TGSxFF', 'id': '4V8LLVI7PbaPR0K2TGSxFF', 'name': 'Tyler, The Creator', 'type': 'artist', 'uri': 'spotify:artist:4V8LLVI7PbaPR0K2TGSxFF'}, {'external_urls': {'spotify': 'https://open.spotify.com/artist/1U1el3k54VvEUzo3ybLPlM'}, 'href': 'https://api.spotify.com/v1/artists/1U1el3k54VvEUzo3ybLPlM', 'id': '1U1el3k54VvEUzo3ybLPlM', 'name': 'Kali Uchis', 'type': 'artist', 'uri': 'spotify:artist:1U1el3k54VvEUzo3ybLPlM'}]",1,4,180386,{'isrc': 'USQX91701275'},{'spotify': 'https://open.spotify.com/track/7KA4W4McWYRpgf0fWsJZWB'},https://api.spotify.com/v1/tracks/7KA4W4McWYRpgf0fWsJZWB,7KA4W4McWYRpgf0fWsJZWB,See You Again (feat. Kali Uchis),88,spotify:track:7KA4W4McWYRpgf0fWsJZWB,False,35
35,https://p.scdn.co/mp3-preview/fe27d5f778e8bb29b3d905087f7f08106731549b?cid=79ef3ea71075497d9b372f3f6206929a,False,track,False,True,"{'type': 'album', 'album_type': 'single', 'href': 'https://api.spotify.com/v1/albums/2PcM535knJOZb6MUth8axj', 'id': '2PcM535knJOZb6MUth8axj', 'images': [{'height': 640, 'url': 'https://i.scdn.co/image/ab67616d0000b27338881a83135ef5b4ace418ba', 'width': 640}, {'height': 300, 'url': 'https://i.scdn.co/image/ab67616d00001e0238881a83135ef5b4ace418ba', 'width': 300}, {'height': 64, 'url': 'https://i.scdn.co/image/ab67616d0000485138881a83135ef5b4ace418ba', 'width': 64}], 'name': 'Smeraldo Garden Marching Band (feat. Loco)', 'release_date': '2024-06-28', 'release_date_precision': 'day', 'uri': 'spotify:album:2PcM535knJOZb6MUth8axj', 'artists': [{'external_urls': {'spotify': 'https://open.spotify.com/artist/1oSPZhvZMIrWW5I41kPkkY'}, 'href': 'https://api.spotify.com/v1/artists/1oSPZhvZMIrWW5I41kPkkY', 'id': '1oSPZhvZMIrWW5I41kPkkY', 'name': 'Jimin', 'type': 'artist', 'uri': 'spotify:artist:1oSPZhvZMIrWW5I41kPkkY'}, {'external_urls': {'spotify': 'https://open.spotify.com/artist/2e4G04F77jxVuDYo44TCSm'}, 'href': 'https://api.spotify.com/v1/artists/2e4G04F77jxVuDYo44TCSm', 'id': '2e4G04F77jxVuDYo44TCSm', 'name': 'Loco', 'type': 'artist', 'uri': 'spotify:artist:2e4G04F77jxVuDYo44TCSm'}], 'external_urls': {'spotify': 'https://open.spotify.com/album/2PcM535knJOZb6MUth8axj'}, 'total_tracks': 1}","[{'external_urls': {'spotify': 'https://open.spotify.com/artist/1oSPZhvZMIrWW5I41kPkkY'}, 'href': 'https://api.spotify.com/v1/artists/1oSPZhvZMIrWW5I41kPkkY', 'id': '1oSPZhvZMIrWW5I41kPkkY', 'name': 'Jimin', 'type': 'artist', 'uri': 'spotify:artist:1oSPZhvZMIrWW5I41kPkkY'}, {'external_urls': {'spotify': 'https://open.spotify.com/artist/2e4G04F77jxVuDYo44TCSm'}, 'href': 'https://api.spotify.com/v1/artists/2e4G04F77jxVuDYo44TCSm', 'id': '2e4G04F77jxVuDYo44TCSm', 'name': 'Loco', 'type': 'artist', 'uri': 'spotify:artist:2e4G04F77jxVuDYo44TCSm'}]",1,1,182840,{'isrc': 'USA2P2431059'},{'spotify': 'https://open.spotify.com/track/1kPhV0KQui1phEpjnWIqUN'},https://api.spotify.com/v1/tracks/1kPhV0KQui1phEpjnWIqUN,1kPhV0KQui1phEpjnWIqUN,Smeraldo Garden Marching Band (feat. Loco),91,spotify:track:1kPhV0KQui1phEpjnWIqUN,False,36
36,,False,track,False,True,"{'type': 'album', 'album_type': 'album', 'href': 'https://api.spotify.com/v1/albums/6i7mF7whyRJuLJ4ogbH2wh', 'id': '6i7mF7whyRJuLJ4ogbH2wh', 'images': [{'height': 640, 'url': 'https://i.scdn.co/image/ab67616d0000b273705079df9a25a28b452c1fc9', 'width': 640}, {'height': 300, 'url': 'https://i.scdn.co/image/ab67616d00001e02705079df9a25a28b452c1fc9', 'width': 300}, {'height': 64, 'url': 'https://i.scdn.co/image/ab67616d00004851705079df9a25a28b452c1fc9', 'width': 64}], 'name': 'One Thing At A Time', 'release_date': '2023-03-03', 'release_date_precision': 'day', 'uri': 'spotify:album:6i7mF7whyRJuLJ4ogbH2wh', 'artists': [{'external_urls': {'spotify': 'https://open.spotify.com/artist/4oUHIQIBe0LHzYfvXNW4QM'}, 'href': 'https://api.spotify.com/v1/artists/4oUHIQIBe0LHzYfvXNW4QM', 'id': '4oUHIQIBe0LHzYfvXNW4QM', 'name': 'Morgan Wallen', 'type': 'artist', 'uri': 'spotify:artist:4oUHIQIBe0LHzYfvXNW4QM'}], 'external_urls': {'spotify': 'https://open.spotify.com/album/6i7mF7whyRJuLJ4ogbH2wh'}, 'total_tracks': 36}","[{'external_urls': {'spotify': 'https://open.spotify.com/artist/4oUHIQIBe0LHzYfvXNW4QM'}, 'href': 'https://api.spotify.com/v1/artists/4oUHIQIBe0LHzYfvXNW4QM', 'id': '4oUHIQIBe0LHzYfvXNW4QM', 'name': 'Morgan Wallen', 'type': 'artist', 'uri': 'spotify:artist:4oUHIQIBe0LHzYfvXNW4QM'}]",1,25,177387,{'isrc': 'USUG12300821'},{'spotify': 'https://open.spotify.com/track/0PAcdVzhPO4gq1Iym9ESnK'},https://api.spotify.com/v1/tracks/0PAcdVzhPO4gq1Iym9ESnK,0PAcdVzhPO4gq1Iym9ESnK,Thinkin’ Bout Me,85,spotify:track:0PAcdVzhPO4gq1Iym9ESnK,False,37
37,https://p.scdn.co/mp3-preview/e645f231787fd914d1cc263644dd7839a2260ef7?cid=79ef3ea71075497d9b372f3f6206929a,False,track,False,True,"{'type': 'album', 'album_type': 'single', 'href': 'https://api.spotify.com/v1/albums/3VNxRarx9HUI5w7DHv0TBj', 'id': '3VNxRarx9HUI5w7DHv0TBj', 'images': [{'height': 640, 'url': 'https://i.scdn.co/image/ab67616d0000b27381b12e1a0584e8ea7ba2ae4a', 'width': 640}, {'height': 300, 'url': 'https://i.scdn.co/image/ab67616d00001e0281b12e1a0584e8ea7ba2ae4a', 'width': 300}, {'height': 64, 'url': 'https://i.scdn.co/image/ab67616d0000485181b12e1a0584e8ea7ba2ae4a', 'width': 64}], 'name': 'Stargazing', 'release_date': '2024-05-10', 'release_date_precision': 'day', 'uri': 'spotify:album:3VNxRarx9HUI5w7DHv0TBj', 'artists': [{'external_urls': {'spotify': 'https://open.spotify.com/artist/3bO19AOone0ubCsfDXDtYt'}, 'href': 'https://api.spotify.com/v1/artists/3bO19AOone0ubCsfDXDtYt', 'id': '3bO19AOone0ubCsfDXDtYt', 'name': 'Myles Smith', 'type': 'artist', 'uri': 'spotify:artist:3bO19AOone0ubCsfDXDtYt'}], 'external_urls': {'spotify': 'https://open.spotify.com/album/3VNxRarx9HUI5w7DHv0TBj'}, 'total_tracks': 1}","[{'external_urls': {'spotify': 'https://open.spotify.com/artist/3bO19AOone0ubCsfDXDtYt'}, 'href': 'https://api.spotify.com/v1/artists/3bO19AOone0ubCsfDXDtYt', 'id': '3bO19AOone0ubCsfDXDtYt', 'name': 'Myles Smith', 'type': 'artist', 'uri': 'spotify:artist:3bO19AOone0ubCsfDXDtYt'}]",1,1,172533,{'isrc': 'GBARL2400510'},{'spotify': 'https://open.spotify.com/track/3Vr3zh0r7ALn8VLqCiRR10'},https://api.spotify.com/v1/tracks/3Vr3zh0r7ALn8VLqCiRR10,3Vr3zh0r7ALn8VLqCiRR10,Stargazing,92,spotify:track:3Vr3zh0r7ALn8VLqCiRR10,False,38
38,,True,track,False,True,"{'type': 'album', 'album_type': 'album', 'href': 'https://api.spotify.com/v1/albums/2g4aJTa5ejGpp0O0GKzWAQ', 'id': '2g4aJTa5ejGpp0O0GKzWAQ', 'images': [{'height': 640, 'url': 'https://i.scdn.co/image/ab67616d0000b2730f45623be014a592a5815827', 'width': 640}, {'height': 300, 'url': 'https://i.scdn.co/image/ab67616d00001e020f45623be014a592a5815827', 'width': 300}, {'height': 64, 'url': 'https://i.scdn.co/image/ab67616d000048510f45623be014a592a5815827', 'width': 64}], 'name': 'emails i can’t send fwd:', 'release_date': '2023-03-17', 'release_date_precision': 'day', 'uri': 'spotify:album:2g4aJTa5ejGpp0O0GKzWAQ', 'artists': [{'external_urls': {'spotify': 'https://open.spotify.com/artist/74KM79TiuVKeVCqs8QtB0B'}, 'href': 'https://api.spotify.com/v1/artists/74KM79TiuVKeVCqs8QtB0B', 'id': '74KM79TiuVKeVCqs8QtB0B', 'name': 'Sabrina Carpenter', 'type': 'artist', 'uri': 'spotify:artist:74KM79TiuVKeVCqs8QtB0B'}], 'external_urls': {'spotify': 'https://open.spotify.com/album/2g4aJTa5ejGpp0O0GKzWAQ'}, 'total_tracks': 17}","[{'external_urls': {'spotify': 'https://open.spotify.com/artist/74KM79TiuVKeVCqs8QtB0B'}, 'href': 'https://api.spotify.com/v1/artists/74KM79TiuVKeVCqs8QtB0B', 'id': '74KM79TiuVKeVCqs8QtB0B', 'name': 'Sabrina Carpenter', 'type': 'artist', 'uri': 'spotify:artist:74KM79TiuVKeVCqs8QtB0B'}]",1,15,185552,{'isrc': 'USUM72301876'},{'spotify': 'https://open.spotify.com/track/2Zo1PcszsT9WQ0ANntJbID'},https://api.spotify.com/v1/tracks/2Zo1PcszsT9WQ0ANntJbID,2Zo1PcszsT9WQ0ANntJbID,Feather,89,spotify:track:2Zo1PcszsT9WQ0ANntJbID,False,39
39,https://p.scdn.co/mp3-preview/8c12da4e3c1e2a2aae8d148d4d2117363b2eeb0a?cid=79ef3ea71075497d9b372f3f6206929a,True,track,False,True,"{'type': 'album', 'album_type': 'single', 'href': 'https://api.spotify.com/v1/albums/62NSHNGNQC2hXZKNuvF6pi', 'id': '62NSHNGNQC2hXZKNuvF6pi', 'images': [{'height': 640, 'url': 'https://i.scdn.co/image/ab67616d0000b2732c44d76ea64d1b5876b44eb3', 'width': 640}, {'height': 300, 'url': 'https://i.scdn.co/image/ab67616d00001e022c44d76ea64d1b5876b44eb3', 'width': 300}, {'height': 64, 'url': 'https://i.scdn.co/image/ab67616d000048512c44d76ea64d1b5876b44eb3', 'width': 64}], 'name': 'High Road (feat. Jessie Murph)', 'release_date': '2024-06-07', 'release_date_precision': 'day', 'uri': 'spotify:album:62NSHNGNQC2hXZKNuvF6pi', 'artists': [{'external_urls': {'spotify': 'https://open.spotify.com/artist/1Tie3AZgLQZqYEp8Fv4zOZ'}, 'href': 'https://api.spotify.com/v1/artists/1Tie3AZgLQZqYEp8Fv4zOZ', 'id': '1Tie3AZgLQZqYEp8Fv4zOZ', 'name': 'Koe Wetzel', 'type': 'artist', 'uri': 'spotify:artist:1Tie3AZgLQZqYEp8Fv4zOZ'}, {'external_urls': {'spotify': 'https://open.spotify.com/artist/2yLzlEFtIS0Q9UkyBZdQA7'}, 'href': 'https://api.spotify.com/v1/artists/2yLzlEFtIS0Q9UkyBZdQA7', 'id': '2yLzlEFtIS0Q9UkyBZdQA7', 'name': 'Jessie Murph', 'type': 'artist', 'uri': 'spotify:artist:2yLzlEFtIS0Q9UkyBZdQA7'}], 'external_urls': {'spotify': 'https://open.spotify.com/album/62NSHNGNQC2hXZKNuvF6pi'}, 'total_tracks': 1}","[{'external_urls': {'spotify': 'https://open.spotify.com/artist/1Tie3AZgLQZqYEp8Fv4zOZ'}, 'href': 'https://api.spotify.com/v1/artists/1Tie3AZgLQZqYEp8Fv4zOZ', 'id': '1Tie3AZgLQZqYEp8Fv4zOZ', 'name': 'Koe Wetzel', 'type': 'artist', 'uri': 'spotify:artist:1Tie3AZgLQZqYEp8Fv4zOZ'}, {'external_urls': {'spotify': 'https://open.spotify.com/artist/2yLzlEFtIS0Q9UkyBZdQA7'}, 'href': 'https://api.spotify.com/v1/artists/2yLzlEFtIS0Q9UkyBZdQA7', 'id': '2yLzlEFtIS0Q9UkyBZdQA7', 'name': 'Jessie Murph', 'type': 'artist', 'uri': 'spotify:artist:2yLzlEFtIS0Q9UkyBZdQA7'}]",1,1,179413,{'isrc': 'USQX92401733'},{'spotify': 'https://open.spotify.com/track/73KAidtqbDftZjy8AD0H04'},https://api.spotify.com/v1/tracks/73KAidtqbDftZjy8AD0H04,73KAidtqbDftZjy8AD0H04,High Road (feat. Jessie Murph),82,spotify:track:73KAidtqbDftZjy8AD0H04,False,40
40,,False,track,False,True,"{'type': 'album', 'album_type': 'album', 'href': 'https://api.spotify.com/v1/albums/1NAmidJlEaVgA3MpcPFYGq', 'id': '1NAmidJlEaVgA3MpcPFYGq', 'images': [{'height': 640, 'url': 'https://i.scdn.co/image/ab67616d0000b273e787cffec20aa2a396a61647', 'width': 640}, {'height': 300, 'url': 'https://i.scdn.co/image/ab67616d00001e02e787cffec20aa2a396a61647', 'width': 300}, {'height': 64, 'url': 'https://i.scdn.co/image/ab67616d00004851e787cffec20aa2a396a61647', 'width': 64}], 'name': 'Lover', 'release_date': '2019-08-23', 'release_date_precision': 'day', 'uri': 'spotify:album:1NAmidJlEaVgA3MpcPFYGq', 'artists': [{'external_urls': {'spotify': 'https://open.spotify.com/artist/06HL4z0CvFAxyc27GXpf02'}, 'href': 'https://api.spotify.com/v1/artists/06HL4z0CvFAxyc27GXpf02', 'id': '06HL4z0CvFAxyc27GXpf02', 'name': 'Taylor Swift', 'type': 'artist', 'uri': 'spotify:artist:06HL4z0CvFAxyc27GXpf02'}], 'external_urls': {'spotify': 'https://open.spotify.com/album/1NAmidJlEaVgA3MpcPFYGq'}, 'total_tracks': 18}","[{'external_urls': {'spotify': 'https://open.spotify.com/artist/06HL4z0CvFAxyc27GXpf02'}, 'href': 'https://api.spotify.com/v1/artists/06HL4z0CvFAxyc27GXpf02', 'id': '06HL4z0CvFAxyc27GXpf02', 'name': 'Taylor Swift', 'type': 'artist', 'uri': 'spotify:artist:06HL4z0CvFAxyc27GXpf02'}]",1,2,178426,{'isrc': 'USUG11901472'},{'spotify': 'https://open.spotify.com/track/1BxfuPKGuaTgP7aM0Bbdwr'},https://api.spotify.com/v1/tracks/1BxfuPKGuaTgP7aM0Bbdwr,1BxfuPKGuaTgP7aM0Bbdwr,Cruel Summer,92,spotify:track:1BxfuPKGuaTgP7aM0Bbdwr,False,41
41,https://p.scdn.co/mp3-preview/e002b15b8d7d1d3c8953abd8f451536c2621bbf4?cid=79ef3ea71075497d9b372f3f6206929a,False,track,False,True,"{'type': 'album', 'album_type': 'album', 'href': 'https://api.spotify.com/v1/albums/7IouDrXPdAZwT1NzVV3vef', 'id': '7IouDrXPdAZwT1NzVV3vef', 'images': [{'height': 640, 'url': 'https://i.scdn.co/image/ab67616d0000b273ba30859a1ca79c5a372d177a', 'width': 640}, {'height': 300, 'url': 'https://i.scdn.co/image/ab67616d00001e02ba30859a1ca79c5a372d177a', 'width': 300}, {'height': 64, 'url': 'https://i.scdn.co/image/ab67616d00004851ba30859a1ca79c5a372d177a', 'width': 64}], 'name': 'American Heartbreak', 'release_date': '2022-05-20', 'release_date_precision': 'day', 'uri': 'spotify:album:7IouDrXPdAZwT1NzVV3vef', 'artists': [{'external_urls': {'spotify': 'https://open.spotify.com/artist/40ZNYROS4zLfyyBSs2PGe2'}, 'href': 'https://api.spotify.com/v1/artists/40ZNYROS4zLfyyBSs2PGe2', 'id': '40ZNYROS4zLfyyBSs2PGe2', 'name': 'Zach Bryan', 'type': 'artist', 'uri': 'spotify:artist:40ZNYROS4zLfyyBSs2PGe2'}], 'external_urls': {'spotify': 'https://open.spotify.com/album/7IouDrXPdAZwT1NzVV3vef'}, 'total_tracks': 34}","[{'external_urls': {'spotify': 'https://open.spotify.com/artist/40ZNYROS4zLfyyBSs2PGe2'}, 'href': 'https://api.spotify.com/v1/artists/40ZNYROS4zLfyyBSs2PGe2', 'id': '40ZNYROS4zLfyyBSs2PGe2', 'name': 'Zach Bryan', 'type': 'artist', 'uri': 'spotify:artist:40ZNYROS4zLfyyBSs2PGe2'}]",1,16,163031,{'isrc': 'USWB12201490'},{'spotify': 'https://open.spotify.com/track/1SjsVdSXpwm1kTdYEHoPIT'},https://api.spotify.com/v1/tracks/1SjsVdSXpwm1kTdYEHoPIT,1SjsVdSXpwm1kTdYEHoPIT,Sun to Me,83,spotify:track:1SjsVdSXpwm1kTdYEHoPIT,False,42
42,https://p.scdn.co/mp3-preview/6ce9233edb212fe7cf02273f4369d2c60c28e887?cid=79ef3ea71075497d9b372f3f6206929a,False,track,False,True,"{'type': 'album', 'album_type': 'single', 'href': 'https://api.spotify.com/v1/albums/5HIWDdg3g9CTOtnevKDl1z', 'id': '5HIWDdg3g9CTOtnevKDl1z', 'images': [{'height': 640, 'url': 'https://i.scdn.co/image/ab67616d0000b273e67611dbbf69a90d0b6cb738', 'width': 640}, {'height': 300, 'url': 'https://i.scdn.co/image/ab67616d00001e02e67611dbbf69a90d0b6cb738', 'width': 300}, {'height': 64, 'url': 'https://i.scdn.co/image/ab67616d00004851e67611dbbf69a90d0b6cb738', 'width': 64}], 'name': 'i like the way you kiss me', 'release_date': '2024-03-19', 'release_date_precision': 'day', 'uri': 'spotify:album:5HIWDdg3g9CTOtnevKDl1z', 'artists': [{'external_urls': {'spotify': 'https://open.spotify.com/artist/0PCCGZ0wGLizHt2KZ7hhA2'}, 'href': 'https://api.spotify.com/v1/artists/0PCCGZ0wGLizHt2KZ7hhA2', 'id': '0PCCGZ0wGLizHt2KZ7hhA2', 'name': 'Artemas', 'type': 'artist', 'uri': 'spotify:artist:0PCCGZ0wGLizHt2KZ7hhA2'}], 'external_urls': {'spotify': 'https://open.spotify.com/album/5HIWDdg3g9CTOtnevKDl1z'}, 'total_tracks': 1}","[{'external_urls': {'spotify': 'https://open.spotify.com/artist/0PCCGZ0wGLizHt2KZ7hhA2'}, 'href': 'https://api.spotify.com/v1/artists/0PCCGZ0wGLizHt2KZ7hhA2', 'id': '0PCCGZ0wGLizHt2KZ7hhA2', 'name': 'Artemas', 'type': 'artist', 'uri': 'spotify:artist:0PCCGZ0wGLizHt2KZ7hhA2'}]",1,1,142514,{'isrc': 'QZJ842400387'},{'spotify': 'https://open.spotify.com/track/2GxrNKugF82CnoRFbQfzPf'},https://api.spotify.com/v1/tracks/2GxrNKugF82CnoRFbQfzPf,2GxrNKugF82CnoRFbQfzPf,i like the way you kiss me,95,spotify:track:2GxrNKugF82CnoRFbQfzPf,False,43
43,https://p.scdn.co/mp3-preview/7ed92ba5dc69c703af94b4973bb7eecb3fa3cce1?cid=79ef3ea71075497d9b372f3f6206929a,False,track,False,True,"{'type': 'album', 'album_type': 'album', 'href': 'https://api.spotify.com/v1/albums/168CdR21lfn0TTyw1Pkdcm', 'id': '168CdR21lfn0TTyw1Pkdcm', 'images': [{'height': 640, 'url': 'https://i.scdn.co/image/ab67616d0000b273cc04ff3e70e146ba9abacf40', 'width': 640}, {'height': 300, 'url': 'https://i.scdn.co/image/ab67616d00001e02cc04ff3e70e146ba9abacf40', 'width': 300}, {'height': 64, 'url': 'https://i.scdn.co/image/ab67616d00004851cc04ff3e70e146ba9abacf40', 'width': 64}], 'name': 'Fireworks & Rollerblades', 'release_date': '2024-04-05', 'release_date_precision': 'day', 'uri': 'spotify:album:168CdR21lfn0TTyw1Pkdcm', 'artists': [{'external_urls': {'spotify': 'https://open.spotify.com/artist/22wbnEMDvgVIAGdFeek6ET'}, 'href': 'https://api.spotify.com/v1/artists/22wbnEMDvgVIAGdFeek6ET', 'id': '22wbnEMDvgVIAGdFeek6ET', 'name': 'Benson Boone', 'type': 'artist', 'uri': 'spotify:artist:22wbnEMDvgVIAGdFeek6ET'}], 'external_urls': {'spotify': 'https://open.spotify.com/album/168CdR21lfn0TTyw1Pkdcm'}, 'total_tracks': 15}","[{'external_urls': {'spotify': 'https://open.spotify.com/artist/22wbnEMDvgVIAGdFeek6ET'}, 'href': 'https://api.spotify.com/v1/artists/22wbnEMDvgVIAGdFeek6ET', 'id': '22wbnEMDvgVIAGdFeek6ET', 'name': 'Benson Boone', 'type': 'artist', 'uri': 'spotify:artist:22wbnEMDvgVIAGdFeek6ET'}]",1,3,161831,{'isrc': 'USWB12400913'},{'spotify': 'https://open.spotify.com/track/51eSHglvG1RJXtL3qI5trr'},https://api.spotify.com/v1/tracks/51eSHglvG1RJXtL3qI5trr,51eSHglvG1RJXtL3qI5trr,Slow It Down,89,spotify:track:51eSHglvG1RJXtL3qI5trr,False,44
44,https://p.scdn.co/mp3-preview/2f6f0965be46144eca9212258c7a2988376727a1?cid=79ef3ea71075497d9b372f3f6206929a,False,track,False,True,"{'type': 'album', 'album_type': 'album', 'href': 'https://api.spotify.com/v1/albums/4JDXBZdRPId4devseaAOKH', 'id': '4JDXBZdRPId4devseaAOKH', 'images': [{'height': 640, 'url': 'https://i.scdn.co/image/ab67616d0000b273fddfffec51b4580acae727c1', 'width': 640}, {'height': 300, 'url': 'https://i.scdn.co/image/ab67616d00001e02fddfffec51b4580acae727c1', 'width': 300}, {'height': 64, 'url': 'https://i.scdn.co/image/ab67616d00004851fddfffec51b4580acae727c1', 'width': 64}], 'name': 'DECIDE', 'release_date': '2022-09-16', 'release_date_precision': 'day', 'uri': 'spotify:album:4JDXBZdRPId4devseaAOKH', 'artists': [{'external_urls': {'spotify': 'https://open.spotify.com/artist/5p9HO3XC5P3BLxJs5Mtrhm'}, 'href': 'https://api.spotify.com/v1/artists/5p9HO3XC5P3BLxJs5Mtrhm', 'id': '5p9HO3XC5P3BLxJs5Mtrhm', 'name': 'Djo', 'type': 'artist', 'uri': 'spotify:artist:5p9HO3XC5P3BLxJs5Mtrhm'}], 'external_urls': {'spotify': 'https://open.spotify.com/album/4JDXBZdRPId4devseaAOKH'}, 'total_tracks': 13}","[{'external_urls': {'spotify': 'https://open.spotify.com/artist/5p9HO3XC5P3BLxJs5Mtrhm'}, 'href': 'https://api.spotify.com/v1/artists/5p9HO3XC5P3BLxJs5Mtrhm', 'id': '5p9HO3XC5P3BLxJs5Mtrhm', 'name': 'Djo', 'type': 'artist', 'uri': 'spotify:artist:5p9HO3XC5P3BLxJs5Mtrhm'}]",1,6,159245,{'isrc': 'GBKPL2205058'},{'spotify': 'https://open.spotify.com/track/3qhlB30KknSejmIvZZLjOD'},https://api.spotify.com/v1/tracks/3qhlB30KknSejmIvZZLjOD,3qhlB30KknSejmIvZZLjOD,End of Beginning,93,spotify:track:3qhlB30KknSejmIvZZLjOD,False,45
45,,True,track,False,True,"{'type': 'album', 'album_type': 'album', 'href': 'https://api.spotify.com/v1/albums/0SW0LplxFID1otCk4bhhHI', 'id': '0SW0LplxFID1otCk4bhhHI', 'images': [{'height': 640, 'url': 'https://i.scdn.co/image/ab67616d0000b273bd9951bb4c9813bc540bde1d', 'width': 640}, {'height': 300, 'url': 'https://i.scdn.co/image/ab67616d00001e02bd9951bb4c9813bc540bde1d', 'width': 300}, {'height': 64, 'url': 'https://i.scdn.co/image/ab67616d00004851bd9951bb4c9813bc540bde1d', 'width': 64}], 'name': 'Ehhthang Ehhthang', 'release_date': '2024-04-05', 'release_date_precision': 'day', 'uri': 'spotify:album:0SW0LplxFID1otCk4bhhHI', 'artists': [{'external_urls': {'spotify': 'https://open.spotify.com/artist/2qoQgPAilErOKCwE2Y8wOG'}, 'href': 'https://api.spotify.com/v1/artists/2qoQgPAilErOKCwE2Y8wOG', 'id': '2qoQgPAilErOKCwE2Y8wOG', 'name': 'GloRilla', 'type': 'artist', 'uri': 'spotify:artist:2qoQgPAilErOKCwE2Y8wOG'}], 'external_urls': {'spotify': 'https://open.spotify.com/album/0SW0LplxFID1otCk4bhhHI'}, 'total_tracks': 12}","[{'external_urls': {'spotify': 'https://open.spotify.com/artist/2qoQgPAilErOKCwE2Y8wOG'}, 'href': 'https://api.spotify.com/v1/artists/2qoQgPAilErOKCwE2Y8wOG', 'id': '2qoQgPAilErOKCwE2Y8wOG', 'name': 'GloRilla', 'type': 'artist', 'uri': 'spotify:artist:2qoQgPAilErOKCwE2Y8wOG'}]",1,1,142702,{'isrc': 'USUM72400409'},{'spotify': 'https://open.spotify.com/track/5A8xI7PN4WDe9e61xEdt94'},https://api.spotify.com/v1/tracks/5A8xI7PN4WDe9e61xEdt94,5A8xI7PN4WDe9e61xEdt94,Yeah Glo!,79,spotify:track:5A8xI7PN4WDe9e61xEdt94,False,46
46,,False,track,False,True,"{'type': 'album', 'album_type': 'album', 'href': 'https://api.spotify.com/v1/albums/5EYKrEDnKhhcNxGedaRQeK', 'id': '5EYKrEDnKhhcNxGedaRQeK', 'images': [{'height': 640, 'url': 'https://i.scdn.co/image/ab67616d0000b2738b58d20f1b77295730db15b4', 'width': 640}, {'height': 300, 'url': 'https://i.scdn.co/image/ab67616d00001e028b58d20f1b77295730db15b4', 'width': 300}, {'height': 64, 'url': 'https://i.scdn.co/image/ab67616d000048518b58d20f1b77295730db15b4', 'width': 64}], 'name': 'eternal sunshine', 'release_date': '2024-03-08', 'release_date_precision': 'day', 'uri': 'spotify:album:5EYKrEDnKhhcNxGedaRQeK', 'artists': [{'external_urls': {'spotify': 'https://open.spotify.com/artist/66CXWjxzNUsdJxJ2JdwvnR'}, 'href': 'https://api.spotify.com/v1/artists/66CXWjxzNUsdJxJ2JdwvnR', 'id': '66CXWjxzNUsdJxJ2JdwvnR', 'name': 'Ariana Grande', 'type': 'artist', 'uri': 'spotify:artist:66CXWjxzNUsdJxJ2JdwvnR'}], 'external_urls': {'spotify': 'https://open.spotify.com/album/5EYKrEDnKhhcNxGedaRQeK'}, 'total_tracks': 13}","[{'external_urls': {'spotify': 'https://open.spotify.com/artist/66CXWjxzNUsdJxJ2JdwvnR'}, 'href': 'https://api.spotify.com/v1/artists/66CXWjxzNUsdJxJ2JdwvnR', 'id': '66CXWjxzNUsdJxJ2JdwvnR', 'name': 'Ariana Grande', 'type': 'artist', 'uri': 'spotify:artist:66CXWjxzNUsdJxJ2JdwvnR'}]",1,10,228639,{'isrc': 'USUM72317276'},{'spotify': 'https://open.spotify.com/track/51ZQ1vr10ffzbwIjDCwqm4'},https://api.spotify.com/v1/tracks/51ZQ1vr10ffzbwIjDCwqm4,51ZQ1vr10ffzbwIjDCwqm4,we can't be friends (wait for your love),90,spotify:track:51ZQ1vr10ffzbwIjDCwqm4,False,47
47,https://p.scdn.co/mp3-preview/befb7e95d881cfc53af67648ce47cba85e9cfd10?cid=79ef3ea71075497d9b372f3f6206929a,True,track,False,True,"{'type': 'album', 'album_type': 'single', 'href': 'https://api.spotify.com/v1/albums/17R63Sb8OrPikc2R4mlpdC', 'id': '17R63Sb8OrPikc2R4mlpdC', 'images': [{'height': 640, 'url': 'https://i.scdn.co/image/ab67616d0000b273c8af7237bb25ad59488944c1', 'width': 640}, {'height': 300, 'url': 'https://i.scdn.co/image/ab67616d00001e02c8af7237bb25ad59488944c1', 'width': 300}, {'height': 64, 'url': 'https://i.scdn.co/image/ab67616d00004851c8af7237bb25ad59488944c1', 'width': 64}], 'name': 'GIRLS', 'release_date': '2024-06-28', 'release_date_precision': 'day', 'uri': 'spotify:album:17R63Sb8OrPikc2R4mlpdC', 'artists': [{'external_urls': {'spotify': 'https://open.spotify.com/artist/2tIP7SsRs7vjIcLrU85W8J'}, 'href': 'https://api.spotify.com/v1/artists/2tIP7SsRs7vjIcLrU85W8J', 'id': '2tIP7SsRs7vjIcLrU85W8J', 'name': 'The Kid LAROI', 'type': 'artist', 'uri': 'spotify:artist:2tIP7SsRs7vjIcLrU85W8J'}], 'external_urls': {'spotify': 'https://open.spotify.com/album/17R63Sb8OrPikc2R4mlpdC'}, 'total_tracks': 2}","[{'external_urls': {'spotify': 'https://open.spotify.com/artist/2tIP7SsRs7vjIcLrU85W8J'}, 'href': 'https://api.spotify.com/v1/artists/2tIP7SsRs7vjIcLrU85W8J', 'id': '2tIP7SsRs7vjIcLrU85W8J', 'name': 'The Kid LAROI', 'type': 'artist', 'uri': 'spotify:artist:2tIP7SsRs7vjIcLrU85W8J'}]",1,1,152979,{'isrc': 'USSM12402296'},{'spotify': 'https://open.spotify.com/track/7z3PblAN3dH1JMewiRydkZ'},https://api.spotify.com/v1/tracks/7z3PblAN3dH1JMewiRydkZ,7z3PblAN3dH1JMewiRydkZ,GIRLS,81,spotify:track:7z3PblAN3dH1JMewiRydkZ,False,48
48,,True,track,False,True,"{'type': 'album', 'album_type': 'single', 'href': 'https://api.spotify.com/v1/albums/32bR4LcEc1PvJEhaKoo4ZN', 'id': '32bR4LcEc1PvJEhaKoo4ZN', 'images': [{'height': 640, 'url': 'https://i.scdn.co/image/ab67616d0000b2737587213b1be294ac4000f648', 'width': 640}, {'height': 300, 'url': 'https://i.scdn.co/image/ab67616d00001e027587213b1be294ac4000f648', 'width': 300}, {'height': 64, 'url': 'https://i.scdn.co/image/ab67616d000048517587213b1be294ac4000f648', 'width': 64}], 'name': 'euphoria', 'release_date': '2024-04-30', 'release_date_precision': 'day', 'uri': 'spotify:album:32bR4LcEc1PvJEhaKoo4ZN', 'artists': [{'external_urls': {'spotify': 'https://open.spotify.com/artist/2YZyLoL8N0Wb9xBt1NhZWg'}, 'href': 'https://api.spotify.com/v1/artists/2YZyLoL8N0Wb9xBt1NhZWg', 'id': '2YZyLoL8N0Wb9xBt1NhZWg', 'name': 'Kendrick Lamar', 'type': 'artist', 'uri': 'spotify:artist:2YZyLoL8N0Wb9xBt1NhZWg'}], 'external_urls': {'spotify': 'https://open.spotify.com/album/32bR4LcEc1PvJEhaKoo4ZN'}, 'total_tracks': 1}","[{'external_urls': {'spotify': 'https://open.spotify.com/artist/2YZyLoL8N0Wb9xBt1NhZWg'}, 'href': 'https://api.spotify.com/v1/artists/2YZyLoL8N0Wb9xBt1NhZWg', 'id': '2YZyLoL8N0Wb9xBt1NhZWg', 'name': 'Kendrick Lamar', 'type': 'artist', 'uri': 'spotify:artist:2YZyLoL8N0Wb9xBt1NhZWg'}]",1,1,383639,{'isrc': 'USUG12402839'},{'spotify': 'https://open.spotify.com/track/77DRzu7ERs0TX3roZcre7Q'},https://api.spotify.com/v1/tracks/77DRzu7ERs0TX3roZcre7Q,77DRzu7ERs0TX3roZcre7Q,euphoria,88,spotify:track:77DRzu7ERs0TX3roZcre7Q,False,49
49,https://p.scdn.co/mp3-preview/4b4a41a2b1de22ce3111f82683fd9eaaad4f8440?cid=79ef3ea71075497d9b372f3f6206929a,False,track,False,True,"{'type': 'album', 'album_type': 'single', 'href': 'https://api.spotify.com/v1/albums/3NpeIWhWsxU7d3XL5KEh39', 'id': '3NpeIWhWsxU7d3XL5KEh39', 'images': [{'height': 640, 'url': 'https://i.scdn.co/image/ab67616d0000b27351ef67c49732e45cd2b26fbe', 'width': 640}, {'height': 300, 'url': 'https://i.scdn.co/image/ab67616d00001e0251ef67c49732e45cd2b26fbe', 'width': 300}, {'height': 64, 'url': 'https://i.scdn.co/image/ab67616d0000485151ef67c49732e45cd2b26fbe', 'width': 64}], 'name': 'Scared To Start', 'release_date': '2024-01-12', 'release_date_precision': 'day', 'uri': 'spotify:album:3NpeIWhWsxU7d3XL5KEh39', 'artists': [{'external_urls': {'spotify': 'https://open.spotify.com/artist/4j96cMcT8GRi11qbvo1cLQ'}, 'href': 'https://api.spotify.com/v1/artists/4j96cMcT8GRi11qbvo1cLQ', 'id': '4j96cMcT8GRi11qbvo1cLQ', 'name': 'Michael Marcagi', 'type': 'artist', 'uri': 'spotify:artist:4j96cMcT8GRi11qbvo1cLQ'}], 'external_urls': {'spotify': 'https://open.spotify.com/album/3NpeIWhWsxU7d3XL5KEh39'}, 'total_tracks': 1}","[{'external_urls': {'spotify': 'https://open.spotify.com/artist/4j96cMcT8GRi11qbvo1cLQ'}, 'href': 'https://api.spotify.com/v1/artists/4j96cMcT8GRi11qbvo1cLQ', 'id': '4j96cMcT8GRi11qbvo1cLQ', 'name': 'Michael Marcagi', 'type': 'artist', 'uri': 'spotify:artist:4j96cMcT8GRi11qbvo1cLQ'}]",1,1,159636,{'isrc': 'USWB12400001'},{'spotify': 'https://open.spotify.com/track/3Pbp7cUCx4d3OAkZSCoNvn'},https://api.spotify.com/v1/tracks/3Pbp7cUCx4d3OAkZSCoNvn,3Pbp7cUCx4d3OAkZSCoNvn,Scared To Start,88,spotify:track:3Pbp7cUCx4d3OAkZSCoNvn,False,50
